file,packages,dependencies,processing_time,definition_eval,grounding,solving,score_removed,score_changed,error
large2.cudf,,,3084,1321,922434,2143554,0,0,
large1.cudf,,,1212,1114,929708,262867,0,0,
car.cudf,,,3,198,158,109,0,0,
legacy.cudf,,,4,200,698,105,6,6,
small1.cudf,,,236,562,226584,139,0,0,
small2.cudf,,,241,613,231701,342,0,0,
small3.cudf,,,260,803,249770,152,0,0,
large3.cudf,,,1207,1074,950144,239037,0,0,
