file,packages,dependencies,processing_time,definition_eval,grounding,solving,score_removed,score_changed,error
large2.cudf,,,500,1401,49135,436690,0,0,
large1.cudf,,,491,1329,52768,423438,0,0,
car.cudf,,,3,188,60,106,0,0,
legacy.cudf,,,3,204,80,108,6,6,
small1.cudf,,,20,4169,10604,158,0,0,
small2.cudf,,,17,582,10711,139,0,0,
small3.cudf,,,18,617,10643,212,0,0,
large3.cudf,,,366,1336,51794,300522,0,0,
