-- START --
>>> Start processing at 09:48:41: rand1bff33.cudf
>>> Finished processing after 18006s: rand1bff33.cudf
>>> Start processing at 14:48:47: randa9ba44.cudf
>>> Finished processing after 18006s: randa9ba44.cudf
>>> Start processing at 19:48:54: rand08759d.cudf
>>> Finished processing after 18006s: rand08759d.cudf
>>> Start processing at 00:49:00: rand5c1800.cudf
>>> Finished processing after 18006s: rand5c1800.cudf
>>> Start processing at 05:49:06: rand951a14.cudf
>>> Finished processing after 18006s: rand951a14.cudf
-- START --
>>> Start processing at 11:49:36: rand8d117b.cudf
>>> Start processing at 11:49:36: rand7fec8c.cudf
>>> Finished processing after 18006s: rand7fec8c.cudf
>>> Start processing at 16:49:42: rand2fb7ab.cudf
>>> Finished processing after 18007s: rand8d117b.cudf
>>> Start processing at 16:49:42: randba6b5b.cudf
>>> Finished processing after 18006s: randba6b5b.cudf
>>> Start processing at 21:49:49: rand5619c8.cudf
>>> Finished processing after 18006s: rand2fb7ab.cudf
>>> Start processing at 21:49:49: randea6106.cudf
>>> Finished processing after 18006s: rand5619c8.cudf
>>> Start processing at 02:49:55: randeb343c.cudf
>>> Finished processing after 18006s: randea6106.cudf
>>> Start processing at 02:49:55: rand6d933e.cudf
>>> Finished processing after 18007s: randeb343c.cudf
>>> Start processing at 07:50:01: randadea40.cudf
>>> Finished processing after 18006s: rand6d933e.cudf
>>> Start processing at 07:50:02: randc192b7.cudf
>>> Finished processing after 18006s: randadea40.cudf
>>> Start processing at 12:50:08: randf7a7e4.cudf
>>> Finished processing after 18006s: randc192b7.cudf
>>> Start processing at 12:50:08: rand359ca0.cudf
>>> Finished processing after 18007s: randf7a7e4.cudf
>>> Start processing at 17:50:14: rand61b840.cudf
>>> Finished processing after 18007s: rand359ca0.cudf
>>> Start processing at 17:50:15: randbe9acf.cudf
>>> Finished processing after 18006s: rand61b840.cudf
>>> Start processing at 22:50:21: rand13b58e.cudf
>>> Finished processing after 18006s: randbe9acf.cudf
>>> Start processing at 22:50:21: randaaa8ea.cudf
>>> Finished processing after 18006s: rand13b58e.cudf
>>> Finished processing after 18006s: randaaa8ea.cudf
