file,packages,dependencies,processing_time,definition_eval,grounding,solving,score_removed,score_changed,error
29180036-5408-11df-9f57-00163e7a6f5e.cudf,2972,30949,14715,1928669,3297,,,,
103c9978-5408-11df-9bc1-00163e7a6f5e.cudf,2972,30949,13281,1579173,2915,,,,
688250e8-4bb4-11df-a561-00163e7a6f5e.cudf,15522,352056,18007,,,,,,Out of resources
218091ce-4bcc-11df-bc4e-00163e7a6f5e.cudf,15522,352056,18006,,,,,,Out of resources
e8a3eb4c-4c81-11df-8b8c-00163e7a6f5e.cudf,15522,352056,18007,,,,,,Out of resources
412959c6-e965-11de-8ebf-00163e6585dd.cudf,3157,28989,9333,967054,3160,,,,
2f690324-4939-11df-9e6e-00163e7a6f5e.cudf,15490,352522,18006,,,,,,Out of resources
7266f636-4b23-11df-9e6e-00163e7a6f5e.cudf,15567,355553,18007,,,,,,Out of resources
cb0e73b0-0ffd-11df-9e59-00163e2c8d72.cudf,3959,43262,12632,2853781,3944,,,,
3e4f8550-0b33-11df-942d-00163e1d94dc.cudf,14623,335759,17477,,,,,,Out of resources
1dcce248-4bb4-11df-9e6e-00163e7a6f5e.cudf,15522,352056,18006,,,,,,Out of resources
56ae4afa-0b33-11df-8a2b-00163e1d94dc.cudf,14623,335759,17197,,,,,,Out of resources
9bb87ab4-4c36-11df-bc1e-00163e7a6f5e.cudf,15522,352056,18007,,,,,,Out of resources
eeee44ce-5407-11df-b11f-00163e7a6f5e.cudf,2972,30949,13588,1756992,3484,,,,
7e7e0b16-38a5-11df-b280-00163e7a6f5e.cudf,14994,323909,15406,,,,,,Out of resources
8ad21cec-4b22-11df-b280-00163e7a6f5e.cudf,15567,355553,18006,,,,,,Out of resources
e0bd67a6-56d0-11df-b11f-00163e7a6f5e.cudf,2731,24788,1473,1406824,2836,56995,8,16,
58a4a468-38a5-11df-a561-00163e7a6f5e.cudf,14994,323909,15857,,,,,,Out of resources
