file,packages,dependencies,processing_time,definition_eval,grounding,solving,score_removed,score_changed,error
randea6106.cudf,2681,20755,4905,1151619,2459,3743345,61,97,
rand2fb7ab.cudf,2670,20761,4208,1033215,2633,3164754,117,193,
rand1bff33.cudf,2672,20698,1418,1405450,2426,3130,23,40,
randaaa8ea.cudf,2666,20640,2241,681196,2321,1550657,65,82,
randadea40.cudf,2685,20914,7180,987258,2502,6182092,95,116,
randf7a7e4.cudf,2673,20664,1872,1189267,2900,671754,403,425,
rand5c1800.cudf,2671,20664,4262,1464673,2988,2785216,51,70,
rand5619c8.cudf,2746,21128,2159,1137962,2677,1011231,58,146,
rand8d117b.cudf,2711,21311,1058,876047,2484,171457,96,157,
randc192b7.cudf,2707,21166,3831,1109191,2559,2710086,86,192,
randbe9acf.cudf,2686,20724,8261,850546,2456,7401483,72,110,
rand13b58e.cudf,2759,21666,5413,1151500,2790,4251230,184,238,
randeb343c.cudf,2691,20802,4428,1081039,2479,3336651,54,95,
randba6b5b.cudf,2686,20811,18007,1033936,2527,16964792,400,592,Out of resources
rand7fec8c.cudf,2680,20766,6295,965121,2475,5319392,30,69,
randa9ba44.cudf,2667,20641,1024,1011958,2969,2260,35,55,
rand08759d.cudf,2679,20696,6742,1275379,2951,5456080,27,109,
rand359ca0.cudf,2689,20724,4449,1055585,2478,3383551,30,65,
rand951a14.cudf,2682,20782,8629,1204425,2688,7413834,96,126,
rand6d933e.cudf,2686,20821,4859,1160645,2538,3688130,58,88,
rand61b840.cudf,2794,21579,3208,912104,2630,2285649,139,247,
