Number of models: 1
Model 1
=======
structure  : OutputVoc {
  isChanged = { bicycle; electric_engine; gasoline_engine; wheel }
  isInstalledAfter = { battery_v3; bicycle_v7; car_v1; door_v1; electric_engine_v1; turbo_v1; wheel_v3 }
  isInstalledBefore = { battery_v3; car_v1; door_v1; gasoline_engine_v1; turbo_v1; wheel_v2 }
  isNewlyInstalled = { bicycle; electric_engine }
  isNotUpToDate = { door; electric_engine }
  isRemoved = { gasoline_engine }
}

