Number of models: 1
Model 1
=======
structure  : OutputVoc {
  PackageName = { "Cnfl"; "Inst" }
  VersionedPackage = { versionedPackage("Cnfl",1); versionedPackage("Cnfl",2); versionedPackage("Cnfl",3); versionedPackage("Cnfl",4); versionedPackage("Cnfl",5); versionedPackage("Cnfl",6); versionedPackage("Cnfl",7); versionedPackage("Cnfl",8); versionedPackage("Cnfl",9); versionedPackage("Cnfl",10); versionedPackage("Cnfl",11); versionedPackage("Cnfl",12); versionedPackage("Cnfl",13); versionedPackage("Cnfl",14); versionedPackage("Cnfl",15); versionedPackage("Cnfl",16); versionedPackage("Cnfl",17); versionedPackage("Cnfl",18); versionedPackage("Cnfl",19); versionedPackage("Cnfl",20); versionedPackage("Cnfl",21); versionedPackage("Cnfl",22); versionedPackage("Cnfl",23); versionedPackage("Cnfl",24); versionedPackage("Cnfl",25); versionedPackage("Cnfl",26); versionedPackage("Cnfl",27); versionedPackage("Cnfl",28); versionedPackage("Cnfl",29); versionedPackage("Cnfl",30); versionedPackage("Cnfl",31); versionedPackage("Cnfl",32); versionedPackage("Cnfl",33); versionedPackage("Cnfl",34); versionedPackage("Cnfl",35); versionedPackage("Cnfl",36); versionedPackage("Cnfl",37); versionedPackage("Cnfl",38); versionedPackage("Cnfl",39); versionedPackage("Cnfl",40); versionedPackage("Cnfl",41); versionedPackage("Cnfl",42); versionedPackage("Cnfl",43); versionedPackage("Cnfl",44); versionedPackage("Cnfl",45); versionedPackage("Cnfl",46); versionedPackage("Cnfl",47); versionedPackage("Cnfl",48); versionedPackage("Cnfl",49); versionedPackage("Cnfl",50); versionedPackage("Cnfl",51); versionedPackage("Cnfl",52); versionedPackage("Cnfl",53); versionedPackage("Cnfl",54); versionedPackage("Cnfl",55); versionedPackage("Cnfl",56); versionedPackage("Cnfl",57); versionedPackage("Cnfl",58); versionedPackage("Cnfl",59); versionedPackage("Cnfl",60); versionedPackage("Cnfl",61); versionedPackage("Cnfl",62); versionedPackage("Cnfl",63); versionedPackage("Cnfl",64); versionedPackage("Cnfl",65); versionedPackage("Cnfl",66); versionedPackage("Cnfl",67); versionedPackage("Cnfl",68); versionedPackage("Cnfl",69); versionedPackage("Cnfl",70); versionedPackage("Cnfl",71); versionedPackage("Cnfl",72); versionedPackage("Cnfl",73); versionedPackage("Cnfl",74); versionedPackage("Cnfl",75); versionedPackage("Cnfl",76); versionedPackage("Cnfl",77); versionedPackage("Cnfl",78); versionedPackage("Cnfl",79); versionedPackage("Cnfl",80); versionedPackage("Cnfl",81); versionedPackage("Cnfl",82); versionedPackage("Cnfl",83); versionedPackage("Cnfl",84); versionedPackage("Cnfl",85); versionedPackage("Cnfl",86); versionedPackage("Cnfl",87); versionedPackage("Cnfl",88); versionedPackage("Cnfl",89); versionedPackage("Cnfl",90); versionedPackage("Cnfl",91); versionedPackage("Cnfl",92); versionedPackage("Cnfl",93); versionedPackage("Cnfl",94); versionedPackage("Cnfl",95); versionedPackage("Cnfl",96); versionedPackage("Cnfl",97); versionedPackage("Cnfl",98); versionedPackage("Cnfl",99); versionedPackage("Cnfl",100); versionedPackage("Cnfl",101); versionedPackage("Cnfl",102); versionedPackage("Cnfl",103); versionedPackage("Cnfl",104); versionedPackage("Cnfl",105); versionedPackage("Cnfl",106); versionedPackage("Cnfl",107); versionedPackage("Cnfl",108); versionedPackage("Cnfl",109); versionedPackage("Cnfl",110); versionedPackage("Cnfl",111); versionedPackage("Cnfl",112); versionedPackage("Cnfl",113); versionedPackage("Cnfl",114); versionedPackage("Cnfl",115); versionedPackage("Cnfl",116); versionedPackage("Cnfl",117); versionedPackage("Cnfl",118); versionedPackage("Cnfl",119); versionedPackage("Cnfl",120); versionedPackage("Cnfl",121); versionedPackage("Cnfl",122); versionedPackage("Cnfl",123); versionedPackage("Cnfl",124); versionedPackage("Cnfl",125); versionedPackage("Cnfl",126); versionedPackage("Cnfl",127); versionedPackage("Cnfl",128); versionedPackage("Cnfl",129); versionedPackage("Cnfl",130); versionedPackage("Cnfl",131); versionedPackage("Cnfl",132); versionedPackage("Cnfl",133); versionedPackage("Cnfl",134); versionedPackage("Cnfl",135); versionedPackage("Cnfl",136); versionedPackage("Cnfl",137); versionedPackage("Cnfl",138); versionedPackage("Cnfl",139); versionedPackage("Cnfl",140); versionedPackage("Cnfl",141); versionedPackage("Cnfl",142); versionedPackage("Cnfl",143); versionedPackage("Cnfl",144); versionedPackage("Cnfl",145); versionedPackage("Cnfl",146); versionedPackage("Cnfl",147); versionedPackage("Cnfl",148); versionedPackage("Cnfl",149); versionedPackage("Cnfl",150); versionedPackage("Cnfl",151); versionedPackage("Cnfl",152); versionedPackage("Cnfl",153); versionedPackage("Cnfl",154); versionedPackage("Cnfl",155); versionedPackage("Cnfl",156); versionedPackage("Cnfl",157); versionedPackage("Cnfl",158); versionedPackage("Cnfl",159); versionedPackage("Cnfl",160); versionedPackage("Cnfl",161); versionedPackage("Cnfl",162); versionedPackage("Cnfl",163); versionedPackage("Cnfl",164); versionedPackage("Cnfl",165); versionedPackage("Cnfl",166); versionedPackage("Cnfl",167); versionedPackage("Cnfl",168); versionedPackage("Cnfl",169); versionedPackage("Cnfl",170); versionedPackage("Cnfl",171); versionedPackage("Cnfl",172); versionedPackage("Cnfl",173); versionedPackage("Cnfl",174); versionedPackage("Cnfl",175); versionedPackage("Cnfl",176); versionedPackage("Cnfl",177); versionedPackage("Cnfl",178); versionedPackage("Cnfl",179); versionedPackage("Cnfl",180); versionedPackage("Cnfl",181); versionedPackage("Cnfl",182); versionedPackage("Cnfl",183); versionedPackage("Cnfl",184); versionedPackage("Cnfl",185); versionedPackage("Cnfl",186); versionedPackage("Cnfl",187); versionedPackage("Cnfl",188); versionedPackage("Cnfl",189); versionedPackage("Cnfl",190); versionedPackage("Cnfl",191); versionedPackage("Cnfl",192); versionedPackage("Cnfl",193); versionedPackage("Cnfl",194); versionedPackage("Cnfl",195); versionedPackage("Cnfl",196); versionedPackage("Cnfl",197); versionedPackage("Cnfl",198); versionedPackage("Cnfl",199); versionedPackage("Cnfl",200); versionedPackage("Cnfl",201); versionedPackage("Cnfl",202); versionedPackage("Cnfl",203); versionedPackage("Cnfl",204); versionedPackage("Cnfl",205); versionedPackage("Cnfl",206); versionedPackage("Cnfl",207); versionedPackage("Cnfl",208); versionedPackage("Cnfl",209); versionedPackage("Cnfl",210); versionedPackage("Cnfl",211); versionedPackage("Cnfl",212); versionedPackage("Cnfl",213); versionedPackage("Cnfl",214); versionedPackage("Cnfl",215); versionedPackage("Cnfl",216); versionedPackage("Cnfl",217); versionedPackage("Cnfl",218); versionedPackage("Cnfl",219); versionedPackage("Cnfl",220); versionedPackage("Cnfl",221); versionedPackage("Cnfl",222); versionedPackage("Cnfl",223); versionedPackage("Cnfl",224); versionedPackage("Cnfl",225); versionedPackage("Cnfl",226); versionedPackage("Cnfl",227); versionedPackage("Cnfl",228); versionedPackage("Cnfl",229); versionedPackage("Cnfl",230); versionedPackage("Cnfl",231); versionedPackage("Cnfl",232); versionedPackage("Cnfl",233); versionedPackage("Cnfl",234); versionedPackage("Cnfl",235); versionedPackage("Cnfl",236); versionedPackage("Cnfl",237); versionedPackage("Cnfl",238); versionedPackage("Cnfl",239); versionedPackage("Cnfl",240); versionedPackage("Cnfl",241); versionedPackage("Cnfl",242); versionedPackage("Cnfl",243); versionedPackage("Cnfl",244); versionedPackage("Cnfl",245); versionedPackage("Cnfl",246); versionedPackage("Cnfl",247); versionedPackage("Cnfl",248); versionedPackage("Cnfl",249); versionedPackage("Cnfl",250); versionedPackage("Cnfl",251); versionedPackage("Cnfl",252); versionedPackage("Cnfl",253); versionedPackage("Cnfl",254); versionedPackage("Cnfl",255); versionedPackage("Cnfl",256); versionedPackage("Cnfl",257); versionedPackage("Cnfl",258); versionedPackage("Cnfl",259); versionedPackage("Cnfl",260); versionedPackage("Cnfl",261); versionedPackage("Cnfl",262); versionedPackage("Cnfl",263); versionedPackage("Cnfl",264); versionedPackage("Cnfl",265); versionedPackage("Cnfl",266); versionedPackage("Cnfl",267); versionedPackage("Cnfl",268); versionedPackage("Cnfl",269); versionedPackage("Cnfl",270); versionedPackage("Cnfl",271); versionedPackage("Cnfl",272); versionedPackage("Cnfl",273); versionedPackage("Cnfl",274); versionedPackage("Cnfl",275); versionedPackage("Cnfl",276); versionedPackage("Cnfl",277); versionedPackage("Cnfl",278); versionedPackage("Cnfl",279); versionedPackage("Cnfl",280); versionedPackage("Cnfl",281); versionedPackage("Cnfl",282); versionedPackage("Cnfl",283); versionedPackage("Cnfl",284); versionedPackage("Cnfl",285); versionedPackage("Cnfl",286); versionedPackage("Cnfl",287); versionedPackage("Cnfl",288); versionedPackage("Cnfl",289); versionedPackage("Cnfl",290); versionedPackage("Cnfl",291); versionedPackage("Cnfl",292); versionedPackage("Cnfl",293); versionedPackage("Cnfl",294); versionedPackage("Cnfl",295); versionedPackage("Cnfl",296); versionedPackage("Cnfl",297); versionedPackage("Cnfl",298); versionedPackage("Cnfl",299); versionedPackage("Cnfl",300); versionedPackage("Cnfl",301); versionedPackage("Cnfl",302); versionedPackage("Cnfl",303); versionedPackage("Cnfl",304); versionedPackage("Cnfl",305); versionedPackage("Cnfl",306); versionedPackage("Cnfl",307); versionedPackage("Cnfl",308); versionedPackage("Cnfl",309); versionedPackage("Cnfl",310); versionedPackage("Cnfl",311); versionedPackage("Cnfl",312); versionedPackage("Cnfl",313); versionedPackage("Cnfl",314); versionedPackage("Cnfl",315); versionedPackage("Cnfl",316); versionedPackage("Cnfl",317); versionedPackage("Cnfl",318); versionedPackage("Cnfl",319); versionedPackage("Cnfl",320); versionedPackage("Cnfl",321); versionedPackage("Cnfl",322); versionedPackage("Cnfl",323); versionedPackage("Cnfl",324); versionedPackage("Cnfl",325); versionedPackage("Cnfl",326); versionedPackage("Cnfl",327); versionedPackage("Cnfl",328); versionedPackage("Cnfl",329); versionedPackage("Cnfl",330); versionedPackage("Cnfl",331); versionedPackage("Cnfl",332); versionedPackage("Cnfl",333); versionedPackage("Cnfl",334); versionedPackage("Cnfl",335); versionedPackage("Cnfl",336); versionedPackage("Cnfl",337); versionedPackage("Cnfl",338); versionedPackage("Cnfl",339); versionedPackage("Cnfl",340); versionedPackage("Cnfl",341); versionedPackage("Cnfl",342); versionedPackage("Cnfl",343); versionedPackage("Cnfl",344); versionedPackage("Cnfl",345); versionedPackage("Cnfl",346); versionedPackage("Cnfl",347); versionedPackage("Cnfl",348); versionedPackage("Cnfl",349); versionedPackage("Cnfl",350); versionedPackage("Cnfl",351); versionedPackage("Cnfl",352); versionedPackage("Cnfl",353); versionedPackage("Cnfl",354); versionedPackage("Cnfl",355); versionedPackage("Cnfl",356); versionedPackage("Cnfl",357); versionedPackage("Cnfl",358); versionedPackage("Cnfl",359); versionedPackage("Cnfl",360); versionedPackage("Cnfl",361); versionedPackage("Cnfl",362); versionedPackage("Cnfl",363); versionedPackage("Cnfl",364); versionedPackage("Cnfl",365); versionedPackage("Cnfl",366); versionedPackage("Cnfl",367); versionedPackage("Cnfl",368); versionedPackage("Cnfl",369); versionedPackage("Cnfl",370); versionedPackage("Cnfl",371); versionedPackage("Cnfl",372); versionedPackage("Cnfl",373); versionedPackage("Cnfl",374); versionedPackage("Cnfl",375); versionedPackage("Cnfl",376); versionedPackage("Cnfl",377); versionedPackage("Cnfl",378); versionedPackage("Cnfl",379); versionedPackage("Cnfl",380); versionedPackage("Cnfl",381); versionedPackage("Cnfl",382); versionedPackage("Cnfl",383); versionedPackage("Cnfl",384); versionedPackage("Cnfl",385); versionedPackage("Cnfl",386); versionedPackage("Cnfl",387); versionedPackage("Cnfl",388); versionedPackage("Cnfl",389); versionedPackage("Cnfl",390); versionedPackage("Cnfl",391); versionedPackage("Cnfl",392); versionedPackage("Cnfl",393); versionedPackage("Cnfl",394); versionedPackage("Cnfl",395); versionedPackage("Cnfl",396); versionedPackage("Cnfl",397); versionedPackage("Cnfl",398); versionedPackage("Cnfl",399); versionedPackage("Cnfl",400); versionedPackage("Cnfl",401); versionedPackage("Cnfl",402); versionedPackage("Cnfl",403); versionedPackage("Cnfl",404); versionedPackage("Cnfl",405); versionedPackage("Cnfl",406); versionedPackage("Cnfl",407); versionedPackage("Cnfl",408); versionedPackage("Cnfl",409); versionedPackage("Cnfl",410); versionedPackage("Cnfl",411); versionedPackage("Cnfl",412); versionedPackage("Cnfl",413); versionedPackage("Cnfl",414); versionedPackage("Cnfl",415); versionedPackage("Cnfl",416); versionedPackage("Cnfl",417); versionedPackage("Cnfl",418); versionedPackage("Cnfl",419); versionedPackage("Cnfl",420); versionedPackage("Cnfl",421); versionedPackage("Cnfl",422); versionedPackage("Cnfl",423); versionedPackage("Cnfl",424); versionedPackage("Cnfl",425); versionedPackage("Cnfl",426); versionedPackage("Cnfl",427); versionedPackage("Cnfl",428); versionedPackage("Cnfl",429); versionedPackage("Cnfl",430); versionedPackage("Cnfl",431); versionedPackage("Cnfl",432); versionedPackage("Cnfl",433); versionedPackage("Cnfl",434); versionedPackage("Cnfl",435); versionedPackage("Cnfl",436); versionedPackage("Cnfl",437); versionedPackage("Cnfl",438); versionedPackage("Cnfl",439); versionedPackage("Cnfl",440); versionedPackage("Cnfl",441); versionedPackage("Cnfl",442); versionedPackage("Cnfl",443); versionedPackage("Cnfl",444); versionedPackage("Cnfl",445); versionedPackage("Cnfl",446); versionedPackage("Cnfl",447); versionedPackage("Cnfl",448); versionedPackage("Cnfl",449); versionedPackage("Cnfl",450); versionedPackage("Cnfl",451); versionedPackage("Cnfl",452); versionedPackage("Cnfl",453); versionedPackage("Cnfl",454); versionedPackage("Cnfl",455); versionedPackage("Cnfl",456); versionedPackage("Cnfl",457); versionedPackage("Cnfl",458); versionedPackage("Cnfl",459); versionedPackage("Cnfl",460); versionedPackage("Cnfl",461); versionedPackage("Cnfl",462); versionedPackage("Cnfl",463); versionedPackage("Cnfl",464); versionedPackage("Cnfl",465); versionedPackage("Cnfl",466); versionedPackage("Cnfl",467); versionedPackage("Cnfl",468); versionedPackage("Cnfl",469); versionedPackage("Cnfl",470); versionedPackage("Cnfl",471); versionedPackage("Cnfl",472); versionedPackage("Cnfl",473); versionedPackage("Cnfl",474); versionedPackage("Cnfl",475); versionedPackage("Cnfl",476); versionedPackage("Cnfl",477); versionedPackage("Cnfl",478); versionedPackage("Cnfl",479); versionedPackage("Cnfl",480); versionedPackage("Cnfl",481); versionedPackage("Cnfl",482); versionedPackage("Cnfl",483); versionedPackage("Cnfl",484); versionedPackage("Cnfl",485); versionedPackage("Cnfl",486); versionedPackage("Cnfl",487); versionedPackage("Cnfl",488); versionedPackage("Cnfl",489); versionedPackage("Cnfl",490); versionedPackage("Cnfl",491); versionedPackage("Cnfl",492); versionedPackage("Cnfl",493); versionedPackage("Cnfl",494); versionedPackage("Cnfl",495); versionedPackage("Cnfl",496); versionedPackage("Cnfl",497); versionedPackage("Cnfl",498); versionedPackage("Cnfl",499); versionedPackage("Cnfl",500); versionedPackage("Inst",1); versionedPackage("Inst",2); versionedPackage("Inst",3); versionedPackage("Inst",4); versionedPackage("Inst",5); versionedPackage("Inst",6); versionedPackage("Inst",7); versionedPackage("Inst",8); versionedPackage("Inst",9); versionedPackage("Inst",10); versionedPackage("Inst",11); versionedPackage("Inst",12); versionedPackage("Inst",13); versionedPackage("Inst",14); versionedPackage("Inst",15); versionedPackage("Inst",16); versionedPackage("Inst",17); versionedPackage("Inst",18); versionedPackage("Inst",19); versionedPackage("Inst",20); versionedPackage("Inst",21); versionedPackage("Inst",22); versionedPackage("Inst",23); versionedPackage("Inst",24); versionedPackage("Inst",25); versionedPackage("Inst",26); versionedPackage("Inst",27); versionedPackage("Inst",28); versionedPackage("Inst",29); versionedPackage("Inst",30); versionedPackage("Inst",31); versionedPackage("Inst",32); versionedPackage("Inst",33); versionedPackage("Inst",34); versionedPackage("Inst",35); versionedPackage("Inst",36); versionedPackage("Inst",37); versionedPackage("Inst",38); versionedPackage("Inst",39); versionedPackage("Inst",40); versionedPackage("Inst",41); versionedPackage("Inst",42); versionedPackage("Inst",43); versionedPackage("Inst",44); versionedPackage("Inst",45); versionedPackage("Inst",46); versionedPackage("Inst",47); versionedPackage("Inst",48); versionedPackage("Inst",49); versionedPackage("Inst",50); versionedPackage("Inst",51); versionedPackage("Inst",52); versionedPackage("Inst",53); versionedPackage("Inst",54); versionedPackage("Inst",55); versionedPackage("Inst",56); versionedPackage("Inst",57); versionedPackage("Inst",58); versionedPackage("Inst",59); versionedPackage("Inst",60); versionedPackage("Inst",61); versionedPackage("Inst",62); versionedPackage("Inst",63); versionedPackage("Inst",64); versionedPackage("Inst",65); versionedPackage("Inst",66); versionedPackage("Inst",67); versionedPackage("Inst",68); versionedPackage("Inst",69); versionedPackage("Inst",70); versionedPackage("Inst",71); versionedPackage("Inst",72); versionedPackage("Inst",73); versionedPackage("Inst",74); versionedPackage("Inst",75); versionedPackage("Inst",76); versionedPackage("Inst",77); versionedPackage("Inst",78); versionedPackage("Inst",79); versionedPackage("Inst",80); versionedPackage("Inst",81); versionedPackage("Inst",82); versionedPackage("Inst",83); versionedPackage("Inst",84); versionedPackage("Inst",85); versionedPackage("Inst",86); versionedPackage("Inst",87); versionedPackage("Inst",88); versionedPackage("Inst",89); versionedPackage("Inst",90); versionedPackage("Inst",91); versionedPackage("Inst",92); versionedPackage("Inst",93); versionedPackage("Inst",94); versionedPackage("Inst",95); versionedPackage("Inst",96); versionedPackage("Inst",97); versionedPackage("Inst",98); versionedPackage("Inst",99); versionedPackage("Inst",100) }
  isChanged = { "Cnfl"; "Inst" }
  isInstalledAfter = { versionedPackage("Cnfl",1); versionedPackage("Cnfl",2); versionedPackage("Cnfl",7); versionedPackage("Cnfl",10); versionedPackage("Cnfl",13); versionedPackage("Cnfl",16); versionedPackage("Cnfl",17); versionedPackage("Cnfl",18); versionedPackage("Cnfl",20); versionedPackage("Cnfl",22); versionedPackage("Cnfl",24); versionedPackage("Cnfl",26); versionedPackage("Cnfl",38); versionedPackage("Cnfl",43); versionedPackage("Cnfl",44); versionedPackage("Cnfl",46); versionedPackage("Cnfl",47); versionedPackage("Cnfl",52); versionedPackage("Cnfl",56); versionedPackage("Cnfl",57); versionedPackage("Cnfl",59); versionedPackage("Cnfl",60); versionedPackage("Cnfl",61); versionedPackage("Cnfl",65); versionedPackage("Cnfl",67); versionedPackage("Cnfl",72); versionedPackage("Cnfl",75); versionedPackage("Cnfl",78); versionedPackage("Cnfl",81); versionedPackage("Cnfl",83); versionedPackage("Cnfl",87); versionedPackage("Cnfl",90); versionedPackage("Cnfl",92); versionedPackage("Cnfl",93); versionedPackage("Cnfl",94); versionedPackage("Cnfl",95); versionedPackage("Cnfl",107); versionedPackage("Cnfl",108); versionedPackage("Cnfl",109); versionedPackage("Cnfl",110); versionedPackage("Cnfl",112); versionedPackage("Cnfl",113); versionedPackage("Cnfl",116); versionedPackage("Cnfl",117); versionedPackage("Cnfl",119); versionedPackage("Cnfl",122); versionedPackage("Cnfl",123); versionedPackage("Cnfl",126); versionedPackage("Cnfl",128); versionedPackage("Cnfl",130); versionedPackage("Cnfl",131); versionedPackage("Cnfl",140); versionedPackage("Cnfl",148); versionedPackage("Cnfl",149); versionedPackage("Cnfl",150); versionedPackage("Cnfl",156); versionedPackage("Cnfl",157); versionedPackage("Cnfl",158); versionedPackage("Cnfl",161); versionedPackage("Cnfl",164); versionedPackage("Cnfl",167); versionedPackage("Cnfl",169); versionedPackage("Cnfl",171); versionedPackage("Cnfl",172); versionedPackage("Cnfl",175); versionedPackage("Cnfl",176); versionedPackage("Cnfl",177); versionedPackage("Cnfl",179); versionedPackage("Cnfl",182); versionedPackage("Cnfl",184); versionedPackage("Cnfl",185); versionedPackage("Cnfl",188); versionedPackage("Cnfl",189); versionedPackage("Cnfl",198); versionedPackage("Cnfl",201); versionedPackage("Cnfl",202); versionedPackage("Cnfl",206); versionedPackage("Cnfl",209); versionedPackage("Cnfl",210); versionedPackage("Cnfl",211); versionedPackage("Cnfl",213); versionedPackage("Cnfl",215); versionedPackage("Cnfl",218); versionedPackage("Cnfl",223); versionedPackage("Cnfl",230); versionedPackage("Cnfl",231); versionedPackage("Cnfl",235); versionedPackage("Cnfl",238); versionedPackage("Cnfl",240); versionedPackage("Cnfl",243); versionedPackage("Cnfl",245); versionedPackage("Cnfl",253); versionedPackage("Cnfl",254); versionedPackage("Cnfl",259); versionedPackage("Cnfl",261); versionedPackage("Cnfl",265); versionedPackage("Cnfl",266); versionedPackage("Cnfl",269); versionedPackage("Cnfl",273); versionedPackage("Cnfl",274); versionedPackage("Cnfl",275); versionedPackage("Cnfl",285); versionedPackage("Cnfl",288); versionedPackage("Cnfl",289); versionedPackage("Cnfl",292); versionedPackage("Cnfl",294); versionedPackage("Cnfl",296); versionedPackage("Cnfl",298); versionedPackage("Cnfl",299); versionedPackage("Cnfl",300); versionedPackage("Cnfl",302); versionedPackage("Cnfl",310); versionedPackage("Cnfl",311); versionedPackage("Cnfl",312); versionedPackage("Cnfl",313); versionedPackage("Cnfl",320); versionedPackage("Cnfl",321); versionedPackage("Cnfl",322); versionedPackage("Cnfl",324); versionedPackage("Cnfl",325); versionedPackage("Cnfl",326); versionedPackage("Cnfl",334); versionedPackage("Cnfl",339); versionedPackage("Cnfl",342); versionedPackage("Cnfl",345); versionedPackage("Cnfl",346); versionedPackage("Cnfl",354); versionedPackage("Cnfl",355); versionedPackage("Cnfl",358); versionedPackage("Cnfl",360); versionedPackage("Cnfl",365); versionedPackage("Cnfl",366); versionedPackage("Cnfl",377); versionedPackage("Cnfl",380); versionedPackage("Cnfl",385); versionedPackage("Cnfl",389); versionedPackage("Cnfl",390); versionedPackage("Cnfl",400); versionedPackage("Cnfl",404); versionedPackage("Cnfl",408); versionedPackage("Cnfl",410); versionedPackage("Cnfl",411); versionedPackage("Cnfl",413); versionedPackage("Cnfl",415); versionedPackage("Cnfl",420); versionedPackage("Cnfl",425); versionedPackage("Cnfl",427); versionedPackage("Cnfl",432); versionedPackage("Cnfl",434); versionedPackage("Cnfl",436); versionedPackage("Cnfl",440); versionedPackage("Cnfl",442); versionedPackage("Cnfl",443); versionedPackage("Cnfl",446); versionedPackage("Cnfl",448); versionedPackage("Cnfl",449); versionedPackage("Cnfl",455); versionedPackage("Cnfl",457); versionedPackage("Cnfl",459); versionedPackage("Cnfl",467); versionedPackage("Cnfl",468); versionedPackage("Cnfl",470); versionedPackage("Cnfl",476); versionedPackage("Cnfl",485); versionedPackage("Cnfl",486); versionedPackage("Cnfl",488); versionedPackage("Cnfl",491); versionedPackage("Cnfl",493); versionedPackage("Cnfl",494); versionedPackage("Cnfl",497); versionedPackage("Cnfl",500); versionedPackage("Inst",1); versionedPackage("Inst",2); versionedPackage("Inst",3); versionedPackage("Inst",4); versionedPackage("Inst",5); versionedPackage("Inst",6); versionedPackage("Inst",7); versionedPackage("Inst",8); versionedPackage("Inst",9); versionedPackage("Inst",10); versionedPackage("Inst",11); versionedPackage("Inst",12); versionedPackage("Inst",13); versionedPackage("Inst",14); versionedPackage("Inst",15); versionedPackage("Inst",16); versionedPackage("Inst",17); versionedPackage("Inst",18); versionedPackage("Inst",19); versionedPackage("Inst",20); versionedPackage("Inst",21); versionedPackage("Inst",22); versionedPackage("Inst",23); versionedPackage("Inst",24); versionedPackage("Inst",25); versionedPackage("Inst",26); versionedPackage("Inst",27); versionedPackage("Inst",28); versionedPackage("Inst",29); versionedPackage("Inst",30); versionedPackage("Inst",31); versionedPackage("Inst",32); versionedPackage("Inst",33); versionedPackage("Inst",34); versionedPackage("Inst",35); versionedPackage("Inst",36); versionedPackage("Inst",37); versionedPackage("Inst",38); versionedPackage("Inst",39); versionedPackage("Inst",40); versionedPackage("Inst",41); versionedPackage("Inst",42); versionedPackage("Inst",43); versionedPackage("Inst",44); versionedPackage("Inst",45); versionedPackage("Inst",46); versionedPackage("Inst",47); versionedPackage("Inst",48); versionedPackage("Inst",49); versionedPackage("Inst",50); versionedPackage("Inst",51); versionedPackage("Inst",52); versionedPackage("Inst",53); versionedPackage("Inst",54); versionedPackage("Inst",55); versionedPackage("Inst",56); versionedPackage("Inst",57); versionedPackage("Inst",58); versionedPackage("Inst",59); versionedPackage("Inst",60); versionedPackage("Inst",61); versionedPackage("Inst",62); versionedPackage("Inst",63); versionedPackage("Inst",64); versionedPackage("Inst",65); versionedPackage("Inst",66); versionedPackage("Inst",67); versionedPackage("Inst",68); versionedPackage("Inst",69); versionedPackage("Inst",70); versionedPackage("Inst",71); versionedPackage("Inst",72); versionedPackage("Inst",73); versionedPackage("Inst",74); versionedPackage("Inst",75); versionedPackage("Inst",76); versionedPackage("Inst",77); versionedPackage("Inst",78); versionedPackage("Inst",79); versionedPackage("Inst",80); versionedPackage("Inst",81); versionedPackage("Inst",82); versionedPackage("Inst",83); versionedPackage("Inst",84); versionedPackage("Inst",85); versionedPackage("Inst",86); versionedPackage("Inst",87); versionedPackage("Inst",88); versionedPackage("Inst",89); versionedPackage("Inst",90); versionedPackage("Inst",91); versionedPackage("Inst",92); versionedPackage("Inst",93); versionedPackage("Inst",94); versionedPackage("Inst",95); versionedPackage("Inst",96); versionedPackage("Inst",97); versionedPackage("Inst",98); versionedPackage("Inst",99); versionedPackage("Inst",100) }
  isInstalledBefore = {  }
  isNewlyInstalled = { "Cnfl"; "Inst" }
  isNotUpToDate = {  }
  isRemoved = {  }
}

