-- START --
>>> Start processing at 16:44:57: rand95e48b.cudf
>>> Start processing at 16:44:57: rand908403.cudf
>>> Finished processing after 18007s: rand908403.cudf
>>> Start processing at 21:45:05: randf61f65.cudf
>>> Finished processing after 18008s: rand95e48b.cudf
>>> Start processing at 21:45:06: rande4fcd8.cudf
>>> Finished processing after 5970s: randf61f65.cudf
>>> Start processing at 23:24:35: randf406d5.cudf
>>> Finished processing after 2434s: randf406d5.cudf
>>> Start processing at 00:05:09: randa45895.cudf
>>> Finished processing after 2075s: randa45895.cudf
>>> Start processing at 00:39:44: rand2d2fd0.cudf
>>> Finished processing after 15537s: rande4fcd8.cudf
>>> Start processing at 02:04:03: rand14ba69.cudf
>>> Finished processing after 6268s: rand2d2fd0.cudf
>>> Start processing at 02:24:12: randa651ed.cudf
>>> Finished processing after 10950s: randa651ed.cudf
>>> Start processing at 05:26:42: rand06f749.cudf
>>> Finished processing after 14038s: rand14ba69.cudf
>>> Start processing at 05:58:01: rand7b4167.cudf
>>> Finished processing after 15060s: rand7b4167.cudf
>>> Start processing at 10:09:01: rand2fe899.cudf
>>> Finished processing after 18008s: rand06f749.cudf
>>> Start processing at 10:26:50: randc10393.cudf
>>> Finished processing after 9083s: rand2fe899.cudf
>>> Start processing at 12:40:25: rand394916.cudf
>>> Finished processing after 10478s: randc10393.cudf
>>> Start processing at 13:21:28: rand0aa5c1.cudf
>>> Finished processing after 2526s: rand394916.cudf
>>> Start processing at 13:22:31: rand50a937.cudf
>>> Finished processing after 5603s: rand50a937.cudf
>>> Start processing at 14:55:54: rand49d73b.cudf
>>> Finished processing after 9389s: rand0aa5c1.cudf
>>> Start processing at 15:57:57: rand4d6b1c.cudf
>>> Finished processing after 5977s: rand49d73b.cudf
>>> Start processing at 16:35:31: randd8bf6a.cudf
>>> Finished processing after 5200s: rand4d6b1c.cudf
>>> Start processing at 17:24:37: randf17677.cudf
>>> Finished processing after 5598s: randf17677.cudf
>>> Start processing at 18:57:55: randa870aa.cudf
>>> Finished processing after 6868s: randa870aa.cudf
>>> Start processing at 20:52:24: rand847939.cudf
>>> Finished processing after 18008s: randd8bf6a.cudf
-- START --
>>> Finished processing after 12014s: rand847939.cudf
