file,packages,dependencies,processing_time,definition_eval,grounding,solving,score_removed,score_changed,error
randea6106.cudf,2681,20755,3903,81037,2365,3811374,61,97,
rand2fb7ab.cudf,2670,20761,3308,98142,2862,3198093,117,193,
rand1bff33.cudf,2672,20698,106,92815,2616,3321,23,40,
randaaa8ea.cudf,2666,20640,1680,85310,2467,1585163,65,82,
randadea40.cudf,2685,20914,6149,82403,2386,6056728,95,116,
randf7a7e4.cudf,2673,20664,754,83810,2843,659348,403,425,
rand5c1800.cudf,2671,20664,2706,102741,2914,2591493,51,70,
rand5619c8.cudf,2746,21128,1191,109892,3124,1069652,58,146,
rand8d117b.cudf,2711,21311,258,83126,2457,164584,96,157,
randc192b7.cudf,2707,21166,2641,86496,2532,2543675,86,192,
randbe9acf.cudf,2686,20724,7485,87705,2427,7387723,72,110,
rand13b58e.cudf,2759,21666,4303,101338,3054,4190410,184,238,
randeb343c.cudf,2691,20802,3496,89685,2564,3395009,54,95,
randba6b5b.cudf,2686,20811,18007,82551,2485,17916066,375,543,Out of resources
rand7fec8c.cudf,2680,20766,5329,82728,2390,5235362,30,69,
randa9ba44.cudf,2667,20641,105,92317,2750,2106,35,55,
rand08759d.cudf,2679,20696,5743,98626,2790,5633299,27,109,
rand359ca0.cudf,2689,20724,3545,86193,2596,3448602,30,65,
rand951a14.cudf,2682,20782,7453,83198,2532,7360464,96,126,
rand6d933e.cudf,2686,20821,3870,85650,2519,3772859,58,88,
rand61b840.cudf,2794,21579,2504,94374,2719,2398314,139,247,
