Number of models: 1
Model 1
=======
structure  : OutputVoc {
  PackageName = { "Cnfl"; "Inst" }
  VersionedPackage = { versionedPackage("Cnfl",1); versionedPackage("Cnfl",2); versionedPackage("Cnfl",3); versionedPackage("Cnfl",4); versionedPackage("Cnfl",5); versionedPackage("Cnfl",6); versionedPackage("Cnfl",7); versionedPackage("Cnfl",8); versionedPackage("Cnfl",9); versionedPackage("Cnfl",10); versionedPackage("Cnfl",11); versionedPackage("Cnfl",12); versionedPackage("Cnfl",13); versionedPackage("Cnfl",14); versionedPackage("Cnfl",15); versionedPackage("Cnfl",16); versionedPackage("Cnfl",17); versionedPackage("Cnfl",18); versionedPackage("Cnfl",19); versionedPackage("Cnfl",20); versionedPackage("Cnfl",21); versionedPackage("Cnfl",22); versionedPackage("Cnfl",23); versionedPackage("Cnfl",24); versionedPackage("Cnfl",25); versionedPackage("Cnfl",26); versionedPackage("Cnfl",27); versionedPackage("Cnfl",28); versionedPackage("Cnfl",29); versionedPackage("Cnfl",30); versionedPackage("Cnfl",31); versionedPackage("Cnfl",32); versionedPackage("Cnfl",33); versionedPackage("Cnfl",34); versionedPackage("Cnfl",35); versionedPackage("Cnfl",36); versionedPackage("Cnfl",37); versionedPackage("Cnfl",38); versionedPackage("Cnfl",39); versionedPackage("Cnfl",40); versionedPackage("Cnfl",41); versionedPackage("Cnfl",42); versionedPackage("Cnfl",43); versionedPackage("Cnfl",44); versionedPackage("Cnfl",45); versionedPackage("Cnfl",46); versionedPackage("Cnfl",47); versionedPackage("Cnfl",48); versionedPackage("Cnfl",49); versionedPackage("Cnfl",50); versionedPackage("Cnfl",51); versionedPackage("Cnfl",52); versionedPackage("Cnfl",53); versionedPackage("Cnfl",54); versionedPackage("Cnfl",55); versionedPackage("Cnfl",56); versionedPackage("Cnfl",57); versionedPackage("Cnfl",58); versionedPackage("Cnfl",59); versionedPackage("Cnfl",60); versionedPackage("Cnfl",61); versionedPackage("Cnfl",62); versionedPackage("Cnfl",63); versionedPackage("Cnfl",64); versionedPackage("Cnfl",65); versionedPackage("Cnfl",66); versionedPackage("Cnfl",67); versionedPackage("Cnfl",68); versionedPackage("Cnfl",69); versionedPackage("Cnfl",70); versionedPackage("Cnfl",71); versionedPackage("Cnfl",72); versionedPackage("Cnfl",73); versionedPackage("Cnfl",74); versionedPackage("Cnfl",75); versionedPackage("Cnfl",76); versionedPackage("Cnfl",77); versionedPackage("Cnfl",78); versionedPackage("Cnfl",79); versionedPackage("Cnfl",80); versionedPackage("Cnfl",81); versionedPackage("Cnfl",82); versionedPackage("Cnfl",83); versionedPackage("Cnfl",84); versionedPackage("Cnfl",85); versionedPackage("Cnfl",86); versionedPackage("Cnfl",87); versionedPackage("Cnfl",88); versionedPackage("Cnfl",89); versionedPackage("Cnfl",90); versionedPackage("Cnfl",91); versionedPackage("Cnfl",92); versionedPackage("Cnfl",93); versionedPackage("Cnfl",94); versionedPackage("Cnfl",95); versionedPackage("Cnfl",96); versionedPackage("Cnfl",97); versionedPackage("Cnfl",98); versionedPackage("Cnfl",99); versionedPackage("Cnfl",100); versionedPackage("Cnfl",101); versionedPackage("Cnfl",102); versionedPackage("Cnfl",103); versionedPackage("Cnfl",104); versionedPackage("Cnfl",105); versionedPackage("Cnfl",106); versionedPackage("Cnfl",107); versionedPackage("Cnfl",108); versionedPackage("Cnfl",109); versionedPackage("Cnfl",110); versionedPackage("Cnfl",111); versionedPackage("Cnfl",112); versionedPackage("Cnfl",113); versionedPackage("Cnfl",114); versionedPackage("Cnfl",115); versionedPackage("Cnfl",116); versionedPackage("Cnfl",117); versionedPackage("Cnfl",118); versionedPackage("Cnfl",119); versionedPackage("Cnfl",120); versionedPackage("Cnfl",121); versionedPackage("Cnfl",122); versionedPackage("Cnfl",123); versionedPackage("Cnfl",124); versionedPackage("Cnfl",125); versionedPackage("Cnfl",126); versionedPackage("Cnfl",127); versionedPackage("Cnfl",128); versionedPackage("Cnfl",129); versionedPackage("Cnfl",130); versionedPackage("Cnfl",131); versionedPackage("Cnfl",132); versionedPackage("Cnfl",133); versionedPackage("Cnfl",134); versionedPackage("Cnfl",135); versionedPackage("Cnfl",136); versionedPackage("Cnfl",137); versionedPackage("Cnfl",138); versionedPackage("Cnfl",139); versionedPackage("Cnfl",140); versionedPackage("Cnfl",141); versionedPackage("Cnfl",142); versionedPackage("Cnfl",143); versionedPackage("Cnfl",144); versionedPackage("Cnfl",145); versionedPackage("Cnfl",146); versionedPackage("Cnfl",147); versionedPackage("Cnfl",148); versionedPackage("Cnfl",149); versionedPackage("Cnfl",150); versionedPackage("Cnfl",151); versionedPackage("Cnfl",152); versionedPackage("Cnfl",153); versionedPackage("Cnfl",154); versionedPackage("Cnfl",155); versionedPackage("Cnfl",156); versionedPackage("Cnfl",157); versionedPackage("Cnfl",158); versionedPackage("Cnfl",159); versionedPackage("Cnfl",160); versionedPackage("Cnfl",161); versionedPackage("Cnfl",162); versionedPackage("Cnfl",163); versionedPackage("Cnfl",164); versionedPackage("Cnfl",165); versionedPackage("Cnfl",166); versionedPackage("Cnfl",167); versionedPackage("Cnfl",168); versionedPackage("Cnfl",169); versionedPackage("Cnfl",170); versionedPackage("Cnfl",171); versionedPackage("Cnfl",172); versionedPackage("Cnfl",173); versionedPackage("Cnfl",174); versionedPackage("Cnfl",175); versionedPackage("Cnfl",176); versionedPackage("Cnfl",177); versionedPackage("Cnfl",178); versionedPackage("Cnfl",179); versionedPackage("Cnfl",180); versionedPackage("Cnfl",181); versionedPackage("Cnfl",182); versionedPackage("Cnfl",183); versionedPackage("Cnfl",184); versionedPackage("Cnfl",185); versionedPackage("Cnfl",186); versionedPackage("Cnfl",187); versionedPackage("Cnfl",188); versionedPackage("Cnfl",189); versionedPackage("Cnfl",190); versionedPackage("Cnfl",191); versionedPackage("Cnfl",192); versionedPackage("Cnfl",193); versionedPackage("Cnfl",194); versionedPackage("Cnfl",195); versionedPackage("Cnfl",196); versionedPackage("Cnfl",197); versionedPackage("Cnfl",198); versionedPackage("Cnfl",199); versionedPackage("Cnfl",200); versionedPackage("Cnfl",201); versionedPackage("Cnfl",202); versionedPackage("Cnfl",203); versionedPackage("Cnfl",204); versionedPackage("Cnfl",205); versionedPackage("Cnfl",206); versionedPackage("Cnfl",207); versionedPackage("Cnfl",208); versionedPackage("Cnfl",209); versionedPackage("Cnfl",210); versionedPackage("Cnfl",211); versionedPackage("Cnfl",212); versionedPackage("Cnfl",213); versionedPackage("Cnfl",214); versionedPackage("Cnfl",215); versionedPackage("Cnfl",216); versionedPackage("Cnfl",217); versionedPackage("Cnfl",218); versionedPackage("Cnfl",219); versionedPackage("Cnfl",220); versionedPackage("Cnfl",221); versionedPackage("Cnfl",222); versionedPackage("Cnfl",223); versionedPackage("Cnfl",224); versionedPackage("Cnfl",225); versionedPackage("Cnfl",226); versionedPackage("Cnfl",227); versionedPackage("Cnfl",228); versionedPackage("Cnfl",229); versionedPackage("Cnfl",230); versionedPackage("Cnfl",231); versionedPackage("Cnfl",232); versionedPackage("Cnfl",233); versionedPackage("Cnfl",234); versionedPackage("Cnfl",235); versionedPackage("Cnfl",236); versionedPackage("Cnfl",237); versionedPackage("Cnfl",238); versionedPackage("Cnfl",239); versionedPackage("Cnfl",240); versionedPackage("Cnfl",241); versionedPackage("Cnfl",242); versionedPackage("Cnfl",243); versionedPackage("Cnfl",244); versionedPackage("Cnfl",245); versionedPackage("Cnfl",246); versionedPackage("Cnfl",247); versionedPackage("Cnfl",248); versionedPackage("Cnfl",249); versionedPackage("Cnfl",250); versionedPackage("Cnfl",251); versionedPackage("Cnfl",252); versionedPackage("Cnfl",253); versionedPackage("Cnfl",254); versionedPackage("Cnfl",255); versionedPackage("Cnfl",256); versionedPackage("Cnfl",257); versionedPackage("Cnfl",258); versionedPackage("Cnfl",259); versionedPackage("Cnfl",260); versionedPackage("Cnfl",261); versionedPackage("Cnfl",262); versionedPackage("Cnfl",263); versionedPackage("Cnfl",264); versionedPackage("Cnfl",265); versionedPackage("Cnfl",266); versionedPackage("Cnfl",267); versionedPackage("Cnfl",268); versionedPackage("Cnfl",269); versionedPackage("Cnfl",270); versionedPackage("Cnfl",271); versionedPackage("Cnfl",272); versionedPackage("Cnfl",273); versionedPackage("Cnfl",274); versionedPackage("Cnfl",275); versionedPackage("Cnfl",276); versionedPackage("Cnfl",277); versionedPackage("Cnfl",278); versionedPackage("Cnfl",279); versionedPackage("Cnfl",280); versionedPackage("Cnfl",281); versionedPackage("Cnfl",282); versionedPackage("Cnfl",283); versionedPackage("Cnfl",284); versionedPackage("Cnfl",285); versionedPackage("Cnfl",286); versionedPackage("Cnfl",287); versionedPackage("Cnfl",288); versionedPackage("Cnfl",289); versionedPackage("Cnfl",290); versionedPackage("Cnfl",291); versionedPackage("Cnfl",292); versionedPackage("Cnfl",293); versionedPackage("Cnfl",294); versionedPackage("Cnfl",295); versionedPackage("Cnfl",296); versionedPackage("Cnfl",297); versionedPackage("Cnfl",298); versionedPackage("Cnfl",299); versionedPackage("Cnfl",300); versionedPackage("Cnfl",301); versionedPackage("Cnfl",302); versionedPackage("Cnfl",303); versionedPackage("Cnfl",304); versionedPackage("Cnfl",305); versionedPackage("Cnfl",306); versionedPackage("Cnfl",307); versionedPackage("Cnfl",308); versionedPackage("Cnfl",309); versionedPackage("Cnfl",310); versionedPackage("Cnfl",311); versionedPackage("Cnfl",312); versionedPackage("Cnfl",313); versionedPackage("Cnfl",314); versionedPackage("Cnfl",315); versionedPackage("Cnfl",316); versionedPackage("Cnfl",317); versionedPackage("Cnfl",318); versionedPackage("Cnfl",319); versionedPackage("Cnfl",320); versionedPackage("Cnfl",321); versionedPackage("Cnfl",322); versionedPackage("Cnfl",323); versionedPackage("Cnfl",324); versionedPackage("Cnfl",325); versionedPackage("Cnfl",326); versionedPackage("Cnfl",327); versionedPackage("Cnfl",328); versionedPackage("Cnfl",329); versionedPackage("Cnfl",330); versionedPackage("Cnfl",331); versionedPackage("Cnfl",332); versionedPackage("Cnfl",333); versionedPackage("Cnfl",334); versionedPackage("Cnfl",335); versionedPackage("Cnfl",336); versionedPackage("Cnfl",337); versionedPackage("Cnfl",338); versionedPackage("Cnfl",339); versionedPackage("Cnfl",340); versionedPackage("Cnfl",341); versionedPackage("Cnfl",342); versionedPackage("Cnfl",343); versionedPackage("Cnfl",344); versionedPackage("Cnfl",345); versionedPackage("Cnfl",346); versionedPackage("Cnfl",347); versionedPackage("Cnfl",348); versionedPackage("Cnfl",349); versionedPackage("Cnfl",350); versionedPackage("Cnfl",351); versionedPackage("Cnfl",352); versionedPackage("Cnfl",353); versionedPackage("Cnfl",354); versionedPackage("Cnfl",355); versionedPackage("Cnfl",356); versionedPackage("Cnfl",357); versionedPackage("Cnfl",358); versionedPackage("Cnfl",359); versionedPackage("Cnfl",360); versionedPackage("Cnfl",361); versionedPackage("Cnfl",362); versionedPackage("Cnfl",363); versionedPackage("Cnfl",364); versionedPackage("Cnfl",365); versionedPackage("Cnfl",366); versionedPackage("Cnfl",367); versionedPackage("Cnfl",368); versionedPackage("Cnfl",369); versionedPackage("Cnfl",370); versionedPackage("Cnfl",371); versionedPackage("Cnfl",372); versionedPackage("Cnfl",373); versionedPackage("Cnfl",374); versionedPackage("Cnfl",375); versionedPackage("Cnfl",376); versionedPackage("Cnfl",377); versionedPackage("Cnfl",378); versionedPackage("Cnfl",379); versionedPackage("Cnfl",380); versionedPackage("Cnfl",381); versionedPackage("Cnfl",382); versionedPackage("Cnfl",383); versionedPackage("Cnfl",384); versionedPackage("Cnfl",385); versionedPackage("Cnfl",386); versionedPackage("Cnfl",387); versionedPackage("Cnfl",388); versionedPackage("Cnfl",389); versionedPackage("Cnfl",390); versionedPackage("Cnfl",391); versionedPackage("Cnfl",392); versionedPackage("Cnfl",393); versionedPackage("Cnfl",394); versionedPackage("Cnfl",395); versionedPackage("Cnfl",396); versionedPackage("Cnfl",397); versionedPackage("Cnfl",398); versionedPackage("Cnfl",399); versionedPackage("Cnfl",400); versionedPackage("Cnfl",401); versionedPackage("Cnfl",402); versionedPackage("Cnfl",403); versionedPackage("Cnfl",404); versionedPackage("Cnfl",405); versionedPackage("Cnfl",406); versionedPackage("Cnfl",407); versionedPackage("Cnfl",408); versionedPackage("Cnfl",409); versionedPackage("Cnfl",410); versionedPackage("Cnfl",411); versionedPackage("Cnfl",412); versionedPackage("Cnfl",413); versionedPackage("Cnfl",414); versionedPackage("Cnfl",415); versionedPackage("Cnfl",416); versionedPackage("Cnfl",417); versionedPackage("Cnfl",418); versionedPackage("Cnfl",419); versionedPackage("Cnfl",420); versionedPackage("Cnfl",421); versionedPackage("Cnfl",422); versionedPackage("Cnfl",423); versionedPackage("Cnfl",424); versionedPackage("Cnfl",425); versionedPackage("Cnfl",426); versionedPackage("Cnfl",427); versionedPackage("Cnfl",428); versionedPackage("Cnfl",429); versionedPackage("Cnfl",430); versionedPackage("Cnfl",431); versionedPackage("Cnfl",432); versionedPackage("Cnfl",433); versionedPackage("Cnfl",434); versionedPackage("Cnfl",435); versionedPackage("Cnfl",436); versionedPackage("Cnfl",437); versionedPackage("Cnfl",438); versionedPackage("Cnfl",439); versionedPackage("Cnfl",440); versionedPackage("Cnfl",441); versionedPackage("Cnfl",442); versionedPackage("Cnfl",443); versionedPackage("Cnfl",444); versionedPackage("Cnfl",445); versionedPackage("Cnfl",446); versionedPackage("Cnfl",447); versionedPackage("Cnfl",448); versionedPackage("Cnfl",449); versionedPackage("Cnfl",450); versionedPackage("Cnfl",451); versionedPackage("Cnfl",452); versionedPackage("Cnfl",453); versionedPackage("Cnfl",454); versionedPackage("Cnfl",455); versionedPackage("Cnfl",456); versionedPackage("Cnfl",457); versionedPackage("Cnfl",458); versionedPackage("Cnfl",459); versionedPackage("Cnfl",460); versionedPackage("Cnfl",461); versionedPackage("Cnfl",462); versionedPackage("Cnfl",463); versionedPackage("Cnfl",464); versionedPackage("Cnfl",465); versionedPackage("Cnfl",466); versionedPackage("Cnfl",467); versionedPackage("Cnfl",468); versionedPackage("Cnfl",469); versionedPackage("Cnfl",470); versionedPackage("Cnfl",471); versionedPackage("Cnfl",472); versionedPackage("Cnfl",473); versionedPackage("Cnfl",474); versionedPackage("Cnfl",475); versionedPackage("Cnfl",476); versionedPackage("Cnfl",477); versionedPackage("Cnfl",478); versionedPackage("Cnfl",479); versionedPackage("Cnfl",480); versionedPackage("Cnfl",481); versionedPackage("Cnfl",482); versionedPackage("Cnfl",483); versionedPackage("Cnfl",484); versionedPackage("Cnfl",485); versionedPackage("Cnfl",486); versionedPackage("Cnfl",487); versionedPackage("Cnfl",488); versionedPackage("Cnfl",489); versionedPackage("Cnfl",490); versionedPackage("Cnfl",491); versionedPackage("Cnfl",492); versionedPackage("Cnfl",493); versionedPackage("Cnfl",494); versionedPackage("Cnfl",495); versionedPackage("Cnfl",496); versionedPackage("Cnfl",497); versionedPackage("Cnfl",498); versionedPackage("Cnfl",499); versionedPackage("Cnfl",500); versionedPackage("Cnfl",501); versionedPackage("Cnfl",502); versionedPackage("Cnfl",503); versionedPackage("Cnfl",504); versionedPackage("Cnfl",505); versionedPackage("Cnfl",506); versionedPackage("Cnfl",507); versionedPackage("Cnfl",508); versionedPackage("Cnfl",509); versionedPackage("Cnfl",510); versionedPackage("Cnfl",511); versionedPackage("Cnfl",512); versionedPackage("Cnfl",513); versionedPackage("Cnfl",514); versionedPackage("Cnfl",515); versionedPackage("Cnfl",516); versionedPackage("Cnfl",517); versionedPackage("Cnfl",518); versionedPackage("Cnfl",519); versionedPackage("Cnfl",520); versionedPackage("Cnfl",521); versionedPackage("Cnfl",522); versionedPackage("Cnfl",523); versionedPackage("Cnfl",524); versionedPackage("Cnfl",525); versionedPackage("Cnfl",526); versionedPackage("Cnfl",527); versionedPackage("Cnfl",528); versionedPackage("Cnfl",529); versionedPackage("Cnfl",530); versionedPackage("Cnfl",531); versionedPackage("Cnfl",532); versionedPackage("Cnfl",533); versionedPackage("Cnfl",534); versionedPackage("Cnfl",535); versionedPackage("Cnfl",536); versionedPackage("Cnfl",537); versionedPackage("Cnfl",538); versionedPackage("Cnfl",539); versionedPackage("Cnfl",540); versionedPackage("Cnfl",541); versionedPackage("Cnfl",542); versionedPackage("Cnfl",543); versionedPackage("Cnfl",544); versionedPackage("Cnfl",545); versionedPackage("Cnfl",546); versionedPackage("Cnfl",547); versionedPackage("Cnfl",548); versionedPackage("Cnfl",549); versionedPackage("Cnfl",550); versionedPackage("Cnfl",551); versionedPackage("Cnfl",552); versionedPackage("Cnfl",553); versionedPackage("Cnfl",554); versionedPackage("Cnfl",555); versionedPackage("Cnfl",556); versionedPackage("Cnfl",557); versionedPackage("Cnfl",558); versionedPackage("Cnfl",559); versionedPackage("Cnfl",560); versionedPackage("Cnfl",561); versionedPackage("Cnfl",562); versionedPackage("Cnfl",563); versionedPackage("Cnfl",564); versionedPackage("Cnfl",565); versionedPackage("Cnfl",566); versionedPackage("Cnfl",567); versionedPackage("Cnfl",568); versionedPackage("Cnfl",569); versionedPackage("Cnfl",570); versionedPackage("Cnfl",571); versionedPackage("Cnfl",572); versionedPackage("Cnfl",573); versionedPackage("Cnfl",574); versionedPackage("Cnfl",575); versionedPackage("Cnfl",576); versionedPackage("Cnfl",577); versionedPackage("Cnfl",578); versionedPackage("Cnfl",579); versionedPackage("Cnfl",580); versionedPackage("Cnfl",581); versionedPackage("Cnfl",582); versionedPackage("Cnfl",583); versionedPackage("Cnfl",584); versionedPackage("Cnfl",585); versionedPackage("Cnfl",586); versionedPackage("Cnfl",587); versionedPackage("Cnfl",588); versionedPackage("Cnfl",589); versionedPackage("Cnfl",590); versionedPackage("Cnfl",591); versionedPackage("Cnfl",592); versionedPackage("Cnfl",593); versionedPackage("Cnfl",594); versionedPackage("Cnfl",595); versionedPackage("Cnfl",596); versionedPackage("Cnfl",597); versionedPackage("Cnfl",598); versionedPackage("Cnfl",599); versionedPackage("Cnfl",600); versionedPackage("Cnfl",601); versionedPackage("Cnfl",602); versionedPackage("Cnfl",603); versionedPackage("Cnfl",604); versionedPackage("Cnfl",605); versionedPackage("Cnfl",606); versionedPackage("Cnfl",607); versionedPackage("Cnfl",608); versionedPackage("Cnfl",609); versionedPackage("Cnfl",610); versionedPackage("Cnfl",611); versionedPackage("Cnfl",612); versionedPackage("Cnfl",613); versionedPackage("Cnfl",614); versionedPackage("Cnfl",615); versionedPackage("Cnfl",616); versionedPackage("Cnfl",617); versionedPackage("Cnfl",618); versionedPackage("Cnfl",619); versionedPackage("Cnfl",620); versionedPackage("Cnfl",621); versionedPackage("Cnfl",622); versionedPackage("Cnfl",623); versionedPackage("Cnfl",624); versionedPackage("Cnfl",625); versionedPackage("Cnfl",626); versionedPackage("Cnfl",627); versionedPackage("Cnfl",628); versionedPackage("Cnfl",629); versionedPackage("Cnfl",630); versionedPackage("Cnfl",631); versionedPackage("Cnfl",632); versionedPackage("Cnfl",633); versionedPackage("Cnfl",634); versionedPackage("Cnfl",635); versionedPackage("Cnfl",636); versionedPackage("Cnfl",637); versionedPackage("Cnfl",638); versionedPackage("Cnfl",639); versionedPackage("Cnfl",640); versionedPackage("Cnfl",641); versionedPackage("Cnfl",642); versionedPackage("Cnfl",643); versionedPackage("Cnfl",644); versionedPackage("Cnfl",645); versionedPackage("Cnfl",646); versionedPackage("Cnfl",647); versionedPackage("Cnfl",648); versionedPackage("Cnfl",649); versionedPackage("Cnfl",650); versionedPackage("Cnfl",651); versionedPackage("Cnfl",652); versionedPackage("Cnfl",653); versionedPackage("Cnfl",654); versionedPackage("Cnfl",655); versionedPackage("Cnfl",656); versionedPackage("Cnfl",657); versionedPackage("Cnfl",658); versionedPackage("Cnfl",659); versionedPackage("Cnfl",660); versionedPackage("Cnfl",661); versionedPackage("Cnfl",662); versionedPackage("Cnfl",663); versionedPackage("Cnfl",664); versionedPackage("Cnfl",665); versionedPackage("Cnfl",666); versionedPackage("Cnfl",667); versionedPackage("Cnfl",668); versionedPackage("Cnfl",669); versionedPackage("Cnfl",670); versionedPackage("Cnfl",671); versionedPackage("Cnfl",672); versionedPackage("Cnfl",673); versionedPackage("Cnfl",674); versionedPackage("Cnfl",675); versionedPackage("Cnfl",676); versionedPackage("Cnfl",677); versionedPackage("Cnfl",678); versionedPackage("Cnfl",679); versionedPackage("Cnfl",680); versionedPackage("Cnfl",681); versionedPackage("Cnfl",682); versionedPackage("Cnfl",683); versionedPackage("Cnfl",684); versionedPackage("Cnfl",685); versionedPackage("Cnfl",686); versionedPackage("Cnfl",687); versionedPackage("Cnfl",688); versionedPackage("Cnfl",689); versionedPackage("Cnfl",690); versionedPackage("Cnfl",691); versionedPackage("Cnfl",692); versionedPackage("Cnfl",693); versionedPackage("Cnfl",694); versionedPackage("Cnfl",695); versionedPackage("Cnfl",696); versionedPackage("Cnfl",697); versionedPackage("Cnfl",698); versionedPackage("Cnfl",699); versionedPackage("Cnfl",700); versionedPackage("Cnfl",701); versionedPackage("Cnfl",702); versionedPackage("Cnfl",703); versionedPackage("Cnfl",704); versionedPackage("Cnfl",705); versionedPackage("Cnfl",706); versionedPackage("Cnfl",707); versionedPackage("Cnfl",708); versionedPackage("Cnfl",709); versionedPackage("Cnfl",710); versionedPackage("Cnfl",711); versionedPackage("Cnfl",712); versionedPackage("Cnfl",713); versionedPackage("Cnfl",714); versionedPackage("Cnfl",715); versionedPackage("Cnfl",716); versionedPackage("Cnfl",717); versionedPackage("Cnfl",718); versionedPackage("Cnfl",719); versionedPackage("Cnfl",720); versionedPackage("Cnfl",721); versionedPackage("Cnfl",722); versionedPackage("Cnfl",723); versionedPackage("Cnfl",724); versionedPackage("Cnfl",725); versionedPackage("Cnfl",726); versionedPackage("Cnfl",727); versionedPackage("Cnfl",728); versionedPackage("Cnfl",729); versionedPackage("Cnfl",730); versionedPackage("Cnfl",731); versionedPackage("Cnfl",732); versionedPackage("Cnfl",733); versionedPackage("Cnfl",734); versionedPackage("Cnfl",735); versionedPackage("Cnfl",736); versionedPackage("Cnfl",737); versionedPackage("Cnfl",738); versionedPackage("Cnfl",739); versionedPackage("Cnfl",740); versionedPackage("Cnfl",741); versionedPackage("Cnfl",742); versionedPackage("Cnfl",743); versionedPackage("Cnfl",744); versionedPackage("Cnfl",745); versionedPackage("Cnfl",746); versionedPackage("Cnfl",747); versionedPackage("Cnfl",748); versionedPackage("Cnfl",749); versionedPackage("Cnfl",750); versionedPackage("Cnfl",751); versionedPackage("Cnfl",752); versionedPackage("Cnfl",753); versionedPackage("Cnfl",754); versionedPackage("Cnfl",755); versionedPackage("Cnfl",756); versionedPackage("Cnfl",757); versionedPackage("Cnfl",758); versionedPackage("Cnfl",759); versionedPackage("Cnfl",760); versionedPackage("Cnfl",761); versionedPackage("Cnfl",762); versionedPackage("Cnfl",763); versionedPackage("Cnfl",764); versionedPackage("Cnfl",765); versionedPackage("Cnfl",766); versionedPackage("Cnfl",767); versionedPackage("Cnfl",768); versionedPackage("Cnfl",769); versionedPackage("Cnfl",770); versionedPackage("Cnfl",771); versionedPackage("Cnfl",772); versionedPackage("Cnfl",773); versionedPackage("Cnfl",774); versionedPackage("Cnfl",775); versionedPackage("Cnfl",776); versionedPackage("Cnfl",777); versionedPackage("Cnfl",778); versionedPackage("Cnfl",779); versionedPackage("Cnfl",780); versionedPackage("Cnfl",781); versionedPackage("Cnfl",782); versionedPackage("Cnfl",783); versionedPackage("Cnfl",784); versionedPackage("Cnfl",785); versionedPackage("Cnfl",786); versionedPackage("Cnfl",787); versionedPackage("Cnfl",788); versionedPackage("Cnfl",789); versionedPackage("Cnfl",790); versionedPackage("Cnfl",791); versionedPackage("Cnfl",792); versionedPackage("Cnfl",793); versionedPackage("Cnfl",794); versionedPackage("Cnfl",795); versionedPackage("Cnfl",796); versionedPackage("Cnfl",797); versionedPackage("Cnfl",798); versionedPackage("Cnfl",799); versionedPackage("Cnfl",800); versionedPackage("Cnfl",801); versionedPackage("Cnfl",802); versionedPackage("Cnfl",803); versionedPackage("Cnfl",804); versionedPackage("Cnfl",805); versionedPackage("Cnfl",806); versionedPackage("Cnfl",807); versionedPackage("Cnfl",808); versionedPackage("Cnfl",809); versionedPackage("Cnfl",810); versionedPackage("Cnfl",811); versionedPackage("Cnfl",812); versionedPackage("Cnfl",813); versionedPackage("Cnfl",814); versionedPackage("Cnfl",815); versionedPackage("Cnfl",816); versionedPackage("Cnfl",817); versionedPackage("Cnfl",818); versionedPackage("Cnfl",819); versionedPackage("Cnfl",820); versionedPackage("Cnfl",821); versionedPackage("Cnfl",822); versionedPackage("Cnfl",823); versionedPackage("Cnfl",824); versionedPackage("Cnfl",825); versionedPackage("Cnfl",826); versionedPackage("Cnfl",827); versionedPackage("Cnfl",828); versionedPackage("Cnfl",829); versionedPackage("Cnfl",830); versionedPackage("Cnfl",831); versionedPackage("Cnfl",832); versionedPackage("Cnfl",833); versionedPackage("Cnfl",834); versionedPackage("Cnfl",835); versionedPackage("Cnfl",836); versionedPackage("Cnfl",837); versionedPackage("Cnfl",838); versionedPackage("Cnfl",839); versionedPackage("Cnfl",840); versionedPackage("Cnfl",841); versionedPackage("Cnfl",842); versionedPackage("Cnfl",843); versionedPackage("Cnfl",844); versionedPackage("Cnfl",845); versionedPackage("Cnfl",846); versionedPackage("Cnfl",847); versionedPackage("Cnfl",848); versionedPackage("Cnfl",849); versionedPackage("Cnfl",850); versionedPackage("Cnfl",851); versionedPackage("Cnfl",852); versionedPackage("Cnfl",853); versionedPackage("Cnfl",854); versionedPackage("Cnfl",855); versionedPackage("Cnfl",856); versionedPackage("Cnfl",857); versionedPackage("Cnfl",858); versionedPackage("Cnfl",859); versionedPackage("Cnfl",860); versionedPackage("Cnfl",861); versionedPackage("Cnfl",862); versionedPackage("Cnfl",863); versionedPackage("Cnfl",864); versionedPackage("Cnfl",865); versionedPackage("Cnfl",866); versionedPackage("Cnfl",867); versionedPackage("Cnfl",868); versionedPackage("Cnfl",869); versionedPackage("Cnfl",870); versionedPackage("Cnfl",871); versionedPackage("Cnfl",872); versionedPackage("Cnfl",873); versionedPackage("Cnfl",874); versionedPackage("Cnfl",875); versionedPackage("Cnfl",876); versionedPackage("Cnfl",877); versionedPackage("Cnfl",878); versionedPackage("Cnfl",879); versionedPackage("Cnfl",880); versionedPackage("Cnfl",881); versionedPackage("Cnfl",882); versionedPackage("Cnfl",883); versionedPackage("Cnfl",884); versionedPackage("Cnfl",885); versionedPackage("Cnfl",886); versionedPackage("Cnfl",887); versionedPackage("Cnfl",888); versionedPackage("Cnfl",889); versionedPackage("Cnfl",890); versionedPackage("Cnfl",891); versionedPackage("Cnfl",892); versionedPackage("Cnfl",893); versionedPackage("Cnfl",894); versionedPackage("Cnfl",895); versionedPackage("Cnfl",896); versionedPackage("Cnfl",897); versionedPackage("Cnfl",898); versionedPackage("Cnfl",899); versionedPackage("Cnfl",900); versionedPackage("Cnfl",901); versionedPackage("Cnfl",902); versionedPackage("Cnfl",903); versionedPackage("Cnfl",904); versionedPackage("Cnfl",905); versionedPackage("Cnfl",906); versionedPackage("Cnfl",907); versionedPackage("Cnfl",908); versionedPackage("Cnfl",909); versionedPackage("Cnfl",910); versionedPackage("Cnfl",911); versionedPackage("Cnfl",912); versionedPackage("Cnfl",913); versionedPackage("Cnfl",914); versionedPackage("Cnfl",915); versionedPackage("Cnfl",916); versionedPackage("Cnfl",917); versionedPackage("Cnfl",918); versionedPackage("Cnfl",919); versionedPackage("Cnfl",920); versionedPackage("Cnfl",921); versionedPackage("Cnfl",922); versionedPackage("Cnfl",923); versionedPackage("Cnfl",924); versionedPackage("Cnfl",925); versionedPackage("Cnfl",926); versionedPackage("Cnfl",927); versionedPackage("Cnfl",928); versionedPackage("Cnfl",929); versionedPackage("Cnfl",930); versionedPackage("Cnfl",931); versionedPackage("Cnfl",932); versionedPackage("Cnfl",933); versionedPackage("Cnfl",934); versionedPackage("Cnfl",935); versionedPackage("Cnfl",936); versionedPackage("Cnfl",937); versionedPackage("Cnfl",938); versionedPackage("Cnfl",939); versionedPackage("Cnfl",940); versionedPackage("Cnfl",941); versionedPackage("Cnfl",942); versionedPackage("Cnfl",943); versionedPackage("Cnfl",944); versionedPackage("Cnfl",945); versionedPackage("Cnfl",946); versionedPackage("Cnfl",947); versionedPackage("Cnfl",948); versionedPackage("Cnfl",949); versionedPackage("Cnfl",950); versionedPackage("Cnfl",951); versionedPackage("Cnfl",952); versionedPackage("Cnfl",953); versionedPackage("Cnfl",954); versionedPackage("Cnfl",955); versionedPackage("Cnfl",956); versionedPackage("Cnfl",957); versionedPackage("Cnfl",958); versionedPackage("Cnfl",959); versionedPackage("Cnfl",960); versionedPackage("Cnfl",961); versionedPackage("Cnfl",962); versionedPackage("Cnfl",963); versionedPackage("Cnfl",964); versionedPackage("Cnfl",965); versionedPackage("Cnfl",966); versionedPackage("Cnfl",967); versionedPackage("Cnfl",968); versionedPackage("Cnfl",969); versionedPackage("Cnfl",970); versionedPackage("Cnfl",971); versionedPackage("Cnfl",972); versionedPackage("Cnfl",973); versionedPackage("Cnfl",974); versionedPackage("Cnfl",975); versionedPackage("Cnfl",976); versionedPackage("Cnfl",977); versionedPackage("Cnfl",978); versionedPackage("Cnfl",979); versionedPackage("Cnfl",980); versionedPackage("Cnfl",981); versionedPackage("Cnfl",982); versionedPackage("Cnfl",983); versionedPackage("Cnfl",984); versionedPackage("Cnfl",985); versionedPackage("Cnfl",986); versionedPackage("Cnfl",987); versionedPackage("Cnfl",988); versionedPackage("Cnfl",989); versionedPackage("Cnfl",990); versionedPackage("Cnfl",991); versionedPackage("Cnfl",992); versionedPackage("Cnfl",993); versionedPackage("Cnfl",994); versionedPackage("Cnfl",995); versionedPackage("Cnfl",996); versionedPackage("Cnfl",997); versionedPackage("Cnfl",998); versionedPackage("Cnfl",999); versionedPackage("Cnfl",1000); versionedPackage("Inst",1); versionedPackage("Inst",2); versionedPackage("Inst",3); versionedPackage("Inst",4); versionedPackage("Inst",5); versionedPackage("Inst",6); versionedPackage("Inst",7); versionedPackage("Inst",8); versionedPackage("Inst",9); versionedPackage("Inst",10); versionedPackage("Inst",11); versionedPackage("Inst",12); versionedPackage("Inst",13); versionedPackage("Inst",14); versionedPackage("Inst",15); versionedPackage("Inst",16); versionedPackage("Inst",17); versionedPackage("Inst",18); versionedPackage("Inst",19); versionedPackage("Inst",20); versionedPackage("Inst",21); versionedPackage("Inst",22); versionedPackage("Inst",23); versionedPackage("Inst",24); versionedPackage("Inst",25); versionedPackage("Inst",26); versionedPackage("Inst",27); versionedPackage("Inst",28); versionedPackage("Inst",29); versionedPackage("Inst",30); versionedPackage("Inst",31); versionedPackage("Inst",32); versionedPackage("Inst",33); versionedPackage("Inst",34); versionedPackage("Inst",35); versionedPackage("Inst",36); versionedPackage("Inst",37); versionedPackage("Inst",38); versionedPackage("Inst",39); versionedPackage("Inst",40); versionedPackage("Inst",41); versionedPackage("Inst",42); versionedPackage("Inst",43); versionedPackage("Inst",44); versionedPackage("Inst",45); versionedPackage("Inst",46); versionedPackage("Inst",47); versionedPackage("Inst",48); versionedPackage("Inst",49); versionedPackage("Inst",50); versionedPackage("Inst",51); versionedPackage("Inst",52); versionedPackage("Inst",53); versionedPackage("Inst",54); versionedPackage("Inst",55); versionedPackage("Inst",56); versionedPackage("Inst",57); versionedPackage("Inst",58); versionedPackage("Inst",59); versionedPackage("Inst",60); versionedPackage("Inst",61); versionedPackage("Inst",62); versionedPackage("Inst",63); versionedPackage("Inst",64); versionedPackage("Inst",65); versionedPackage("Inst",66); versionedPackage("Inst",67); versionedPackage("Inst",68); versionedPackage("Inst",69); versionedPackage("Inst",70); versionedPackage("Inst",71); versionedPackage("Inst",72); versionedPackage("Inst",73); versionedPackage("Inst",74); versionedPackage("Inst",75); versionedPackage("Inst",76); versionedPackage("Inst",77); versionedPackage("Inst",78); versionedPackage("Inst",79); versionedPackage("Inst",80); versionedPackage("Inst",81); versionedPackage("Inst",82); versionedPackage("Inst",83); versionedPackage("Inst",84); versionedPackage("Inst",85); versionedPackage("Inst",86); versionedPackage("Inst",87); versionedPackage("Inst",88); versionedPackage("Inst",89); versionedPackage("Inst",90); versionedPackage("Inst",91); versionedPackage("Inst",92); versionedPackage("Inst",93); versionedPackage("Inst",94); versionedPackage("Inst",95); versionedPackage("Inst",96); versionedPackage("Inst",97); versionedPackage("Inst",98); versionedPackage("Inst",99); versionedPackage("Inst",100); versionedPackage("Inst",101); versionedPackage("Inst",102); versionedPackage("Inst",103); versionedPackage("Inst",104); versionedPackage("Inst",105); versionedPackage("Inst",106); versionedPackage("Inst",107); versionedPackage("Inst",108); versionedPackage("Inst",109); versionedPackage("Inst",110); versionedPackage("Inst",111); versionedPackage("Inst",112); versionedPackage("Inst",113); versionedPackage("Inst",114); versionedPackage("Inst",115); versionedPackage("Inst",116); versionedPackage("Inst",117); versionedPackage("Inst",118); versionedPackage("Inst",119); versionedPackage("Inst",120); versionedPackage("Inst",121); versionedPackage("Inst",122); versionedPackage("Inst",123); versionedPackage("Inst",124); versionedPackage("Inst",125); versionedPackage("Inst",126); versionedPackage("Inst",127); versionedPackage("Inst",128); versionedPackage("Inst",129); versionedPackage("Inst",130); versionedPackage("Inst",131); versionedPackage("Inst",132); versionedPackage("Inst",133); versionedPackage("Inst",134); versionedPackage("Inst",135); versionedPackage("Inst",136); versionedPackage("Inst",137); versionedPackage("Inst",138); versionedPackage("Inst",139); versionedPackage("Inst",140); versionedPackage("Inst",141); versionedPackage("Inst",142); versionedPackage("Inst",143); versionedPackage("Inst",144); versionedPackage("Inst",145); versionedPackage("Inst",146); versionedPackage("Inst",147); versionedPackage("Inst",148); versionedPackage("Inst",149); versionedPackage("Inst",150); versionedPackage("Inst",151); versionedPackage("Inst",152); versionedPackage("Inst",153); versionedPackage("Inst",154); versionedPackage("Inst",155); versionedPackage("Inst",156); versionedPackage("Inst",157); versionedPackage("Inst",158); versionedPackage("Inst",159); versionedPackage("Inst",160); versionedPackage("Inst",161); versionedPackage("Inst",162); versionedPackage("Inst",163); versionedPackage("Inst",164); versionedPackage("Inst",165); versionedPackage("Inst",166); versionedPackage("Inst",167); versionedPackage("Inst",168); versionedPackage("Inst",169); versionedPackage("Inst",170); versionedPackage("Inst",171); versionedPackage("Inst",172); versionedPackage("Inst",173); versionedPackage("Inst",174); versionedPackage("Inst",175); versionedPackage("Inst",176); versionedPackage("Inst",177); versionedPackage("Inst",178); versionedPackage("Inst",179); versionedPackage("Inst",180); versionedPackage("Inst",181); versionedPackage("Inst",182); versionedPackage("Inst",183); versionedPackage("Inst",184); versionedPackage("Inst",185); versionedPackage("Inst",186); versionedPackage("Inst",187); versionedPackage("Inst",188); versionedPackage("Inst",189); versionedPackage("Inst",190); versionedPackage("Inst",191); versionedPackage("Inst",192); versionedPackage("Inst",193); versionedPackage("Inst",194); versionedPackage("Inst",195); versionedPackage("Inst",196); versionedPackage("Inst",197); versionedPackage("Inst",198); versionedPackage("Inst",199) }
  isChanged = { "Cnfl"; "Inst" }
  isInstalledAfter = { versionedPackage("Cnfl",2); versionedPackage("Cnfl",7); versionedPackage("Cnfl",11); versionedPackage("Cnfl",18); versionedPackage("Cnfl",19); versionedPackage("Cnfl",20); versionedPackage("Cnfl",33); versionedPackage("Cnfl",34); versionedPackage("Cnfl",35); versionedPackage("Cnfl",36); versionedPackage("Cnfl",37); versionedPackage("Cnfl",46); versionedPackage("Cnfl",47); versionedPackage("Cnfl",50); versionedPackage("Cnfl",51); versionedPackage("Cnfl",54); versionedPackage("Cnfl",55); versionedPackage("Cnfl",59); versionedPackage("Cnfl",62); versionedPackage("Cnfl",63); versionedPackage("Cnfl",64); versionedPackage("Cnfl",66); versionedPackage("Cnfl",67); versionedPackage("Cnfl",68); versionedPackage("Cnfl",69); versionedPackage("Cnfl",74); versionedPackage("Cnfl",75); versionedPackage("Cnfl",76); versionedPackage("Cnfl",77); versionedPackage("Cnfl",79); versionedPackage("Cnfl",86); versionedPackage("Cnfl",87); versionedPackage("Cnfl",88); versionedPackage("Cnfl",91); versionedPackage("Cnfl",93); versionedPackage("Cnfl",94); versionedPackage("Cnfl",97); versionedPackage("Cnfl",98); versionedPackage("Cnfl",100); versionedPackage("Cnfl",108); versionedPackage("Cnfl",109); versionedPackage("Cnfl",114); versionedPackage("Cnfl",116); versionedPackage("Cnfl",117); versionedPackage("Cnfl",119); versionedPackage("Cnfl",120); versionedPackage("Cnfl",121); versionedPackage("Cnfl",122); versionedPackage("Cnfl",123); versionedPackage("Cnfl",124); versionedPackage("Cnfl",128); versionedPackage("Cnfl",129); versionedPackage("Cnfl",130); versionedPackage("Cnfl",135); versionedPackage("Cnfl",137); versionedPackage("Cnfl",143); versionedPackage("Cnfl",144); versionedPackage("Cnfl",145); versionedPackage("Cnfl",147); versionedPackage("Cnfl",150); versionedPackage("Cnfl",163); versionedPackage("Cnfl",168); versionedPackage("Cnfl",169); versionedPackage("Cnfl",176); versionedPackage("Cnfl",178); versionedPackage("Cnfl",179); versionedPackage("Cnfl",183); versionedPackage("Cnfl",186); versionedPackage("Cnfl",191); versionedPackage("Cnfl",194); versionedPackage("Cnfl",196); versionedPackage("Cnfl",197); versionedPackage("Cnfl",207); versionedPackage("Cnfl",211); versionedPackage("Cnfl",213); versionedPackage("Cnfl",215); versionedPackage("Cnfl",221); versionedPackage("Cnfl",222); versionedPackage("Cnfl",223); versionedPackage("Cnfl",224); versionedPackage("Cnfl",227); versionedPackage("Cnfl",229); versionedPackage("Cnfl",232); versionedPackage("Cnfl",233); versionedPackage("Cnfl",236); versionedPackage("Cnfl",243); versionedPackage("Cnfl",244); versionedPackage("Cnfl",245); versionedPackage("Cnfl",249); versionedPackage("Cnfl",251); versionedPackage("Cnfl",257); versionedPackage("Cnfl",261); versionedPackage("Cnfl",262); versionedPackage("Cnfl",265); versionedPackage("Cnfl",274); versionedPackage("Cnfl",276); versionedPackage("Cnfl",280); versionedPackage("Cnfl",281); versionedPackage("Cnfl",282); versionedPackage("Cnfl",283); versionedPackage("Cnfl",284); versionedPackage("Cnfl",286); versionedPackage("Cnfl",288); versionedPackage("Cnfl",290); versionedPackage("Cnfl",292); versionedPackage("Cnfl",295); versionedPackage("Cnfl",300); versionedPackage("Cnfl",301); versionedPackage("Cnfl",302); versionedPackage("Cnfl",304); versionedPackage("Cnfl",305); versionedPackage("Cnfl",308); versionedPackage("Cnfl",309); versionedPackage("Cnfl",311); versionedPackage("Cnfl",318); versionedPackage("Cnfl",326); versionedPackage("Cnfl",328); versionedPackage("Cnfl",330); versionedPackage("Cnfl",336); versionedPackage("Cnfl",341); versionedPackage("Cnfl",346); versionedPackage("Cnfl",350); versionedPackage("Cnfl",352); versionedPackage("Cnfl",356); versionedPackage("Cnfl",358); versionedPackage("Cnfl",360); versionedPackage("Cnfl",363); versionedPackage("Cnfl",365); versionedPackage("Cnfl",367); versionedPackage("Cnfl",370); versionedPackage("Cnfl",371); versionedPackage("Cnfl",375); versionedPackage("Cnfl",381); versionedPackage("Cnfl",386); versionedPackage("Cnfl",388); versionedPackage("Cnfl",394); versionedPackage("Cnfl",395); versionedPackage("Cnfl",400); versionedPackage("Cnfl",402); versionedPackage("Cnfl",404); versionedPackage("Cnfl",405); versionedPackage("Cnfl",406); versionedPackage("Cnfl",408); versionedPackage("Cnfl",411); versionedPackage("Cnfl",413); versionedPackage("Cnfl",415); versionedPackage("Cnfl",423); versionedPackage("Cnfl",425); versionedPackage("Cnfl",426); versionedPackage("Cnfl",429); versionedPackage("Cnfl",430); versionedPackage("Cnfl",432); versionedPackage("Cnfl",434); versionedPackage("Cnfl",438); versionedPackage("Cnfl",440); versionedPackage("Cnfl",441); versionedPackage("Cnfl",443); versionedPackage("Cnfl",451); versionedPackage("Cnfl",452); versionedPackage("Cnfl",453); versionedPackage("Cnfl",456); versionedPackage("Cnfl",457); versionedPackage("Cnfl",462); versionedPackage("Cnfl",464); versionedPackage("Cnfl",465); versionedPackage("Cnfl",468); versionedPackage("Cnfl",473); versionedPackage("Cnfl",475); versionedPackage("Cnfl",479); versionedPackage("Cnfl",480); versionedPackage("Cnfl",484); versionedPackage("Cnfl",493); versionedPackage("Cnfl",495); versionedPackage("Cnfl",500); versionedPackage("Cnfl",511); versionedPackage("Cnfl",512); versionedPackage("Cnfl",514); versionedPackage("Cnfl",517); versionedPackage("Cnfl",518); versionedPackage("Cnfl",520); versionedPackage("Cnfl",526); versionedPackage("Cnfl",527); versionedPackage("Cnfl",535); versionedPackage("Cnfl",537); versionedPackage("Cnfl",542); versionedPackage("Cnfl",544); versionedPackage("Cnfl",546); versionedPackage("Cnfl",552); versionedPackage("Cnfl",553); versionedPackage("Cnfl",555); versionedPackage("Cnfl",557); versionedPackage("Cnfl",563); versionedPackage("Cnfl",564); versionedPackage("Cnfl",566); versionedPackage("Cnfl",567); versionedPackage("Cnfl",570); versionedPackage("Cnfl",573); versionedPackage("Cnfl",574); versionedPackage("Cnfl",575); versionedPackage("Cnfl",583); versionedPackage("Cnfl",584); versionedPackage("Cnfl",586); versionedPackage("Cnfl",587); versionedPackage("Cnfl",588); versionedPackage("Cnfl",590); versionedPackage("Cnfl",591); versionedPackage("Cnfl",594); versionedPackage("Cnfl",600); versionedPackage("Cnfl",601); versionedPackage("Cnfl",603); versionedPackage("Cnfl",607); versionedPackage("Cnfl",610); versionedPackage("Cnfl",614); versionedPackage("Cnfl",621); versionedPackage("Cnfl",622); versionedPackage("Cnfl",623); versionedPackage("Cnfl",624); versionedPackage("Cnfl",626); versionedPackage("Cnfl",629); versionedPackage("Cnfl",645); versionedPackage("Cnfl",651); versionedPackage("Cnfl",653); versionedPackage("Cnfl",657); versionedPackage("Cnfl",658); versionedPackage("Cnfl",661); versionedPackage("Cnfl",662); versionedPackage("Cnfl",665); versionedPackage("Cnfl",667); versionedPackage("Cnfl",668); versionedPackage("Cnfl",670); versionedPackage("Cnfl",673); versionedPackage("Cnfl",674); versionedPackage("Cnfl",675); versionedPackage("Cnfl",677); versionedPackage("Cnfl",684); versionedPackage("Cnfl",686); versionedPackage("Cnfl",689); versionedPackage("Cnfl",692); versionedPackage("Cnfl",693); versionedPackage("Cnfl",698); versionedPackage("Cnfl",701); versionedPackage("Cnfl",709); versionedPackage("Cnfl",711); versionedPackage("Cnfl",712); versionedPackage("Cnfl",713); versionedPackage("Cnfl",714); versionedPackage("Cnfl",715); versionedPackage("Cnfl",717); versionedPackage("Cnfl",718); versionedPackage("Cnfl",719); versionedPackage("Cnfl",721); versionedPackage("Cnfl",729); versionedPackage("Cnfl",730); versionedPackage("Cnfl",733); versionedPackage("Cnfl",735); versionedPackage("Cnfl",738); versionedPackage("Cnfl",743); versionedPackage("Cnfl",746); versionedPackage("Cnfl",747); versionedPackage("Cnfl",748); versionedPackage("Cnfl",749); versionedPackage("Cnfl",755); versionedPackage("Cnfl",756); versionedPackage("Cnfl",758); versionedPackage("Cnfl",761); versionedPackage("Cnfl",765); versionedPackage("Cnfl",766); versionedPackage("Cnfl",770); versionedPackage("Cnfl",779); versionedPackage("Cnfl",780); versionedPackage("Cnfl",782); versionedPackage("Cnfl",784); versionedPackage("Cnfl",785); versionedPackage("Cnfl",786); versionedPackage("Cnfl",796); versionedPackage("Cnfl",799); versionedPackage("Cnfl",801); versionedPackage("Cnfl",803); versionedPackage("Cnfl",806); versionedPackage("Cnfl",807); versionedPackage("Cnfl",810); versionedPackage("Cnfl",811); versionedPackage("Cnfl",812); versionedPackage("Cnfl",815); versionedPackage("Cnfl",817); versionedPackage("Cnfl",821); versionedPackage("Cnfl",823); versionedPackage("Cnfl",824); versionedPackage("Cnfl",828); versionedPackage("Cnfl",829); versionedPackage("Cnfl",835); versionedPackage("Cnfl",840); versionedPackage("Cnfl",842); versionedPackage("Cnfl",843); versionedPackage("Cnfl",845); versionedPackage("Cnfl",849); versionedPackage("Cnfl",850); versionedPackage("Cnfl",852); versionedPackage("Cnfl",855); versionedPackage("Cnfl",859); versionedPackage("Cnfl",862); versionedPackage("Cnfl",863); versionedPackage("Cnfl",866); versionedPackage("Cnfl",868); versionedPackage("Cnfl",878); versionedPackage("Cnfl",880); versionedPackage("Cnfl",884); versionedPackage("Cnfl",885); versionedPackage("Cnfl",886); versionedPackage("Cnfl",889); versionedPackage("Cnfl",891); versionedPackage("Cnfl",892); versionedPackage("Cnfl",894); versionedPackage("Cnfl",896); versionedPackage("Cnfl",903); versionedPackage("Cnfl",909); versionedPackage("Cnfl",912); versionedPackage("Cnfl",914); versionedPackage("Cnfl",919); versionedPackage("Cnfl",923); versionedPackage("Cnfl",927); versionedPackage("Cnfl",928); versionedPackage("Cnfl",930); versionedPackage("Cnfl",931); versionedPackage("Cnfl",933); versionedPackage("Cnfl",934); versionedPackage("Cnfl",935); versionedPackage("Cnfl",944); versionedPackage("Cnfl",945); versionedPackage("Cnfl",948); versionedPackage("Cnfl",949); versionedPackage("Cnfl",951); versionedPackage("Cnfl",952); versionedPackage("Cnfl",958); versionedPackage("Cnfl",960); versionedPackage("Cnfl",970); versionedPackage("Cnfl",974); versionedPackage("Cnfl",981); versionedPackage("Cnfl",982); versionedPackage("Cnfl",983); versionedPackage("Cnfl",987); versionedPackage("Cnfl",988); versionedPackage("Cnfl",989); versionedPackage("Cnfl",991); versionedPackage("Inst",1); versionedPackage("Inst",2); versionedPackage("Inst",3); versionedPackage("Inst",4); versionedPackage("Inst",5); versionedPackage("Inst",6); versionedPackage("Inst",7); versionedPackage("Inst",8); versionedPackage("Inst",9); versionedPackage("Inst",10); versionedPackage("Inst",11); versionedPackage("Inst",12); versionedPackage("Inst",13); versionedPackage("Inst",14); versionedPackage("Inst",15); versionedPackage("Inst",16); versionedPackage("Inst",17); versionedPackage("Inst",18); versionedPackage("Inst",19); versionedPackage("Inst",20); versionedPackage("Inst",21); versionedPackage("Inst",22); versionedPackage("Inst",23); versionedPackage("Inst",24); versionedPackage("Inst",25); versionedPackage("Inst",26); versionedPackage("Inst",27); versionedPackage("Inst",28); versionedPackage("Inst",29); versionedPackage("Inst",30); versionedPackage("Inst",31); versionedPackage("Inst",32); versionedPackage("Inst",33); versionedPackage("Inst",34); versionedPackage("Inst",35); versionedPackage("Inst",36); versionedPackage("Inst",37); versionedPackage("Inst",38); versionedPackage("Inst",39); versionedPackage("Inst",40); versionedPackage("Inst",41); versionedPackage("Inst",42); versionedPackage("Inst",43); versionedPackage("Inst",44); versionedPackage("Inst",45); versionedPackage("Inst",46); versionedPackage("Inst",47); versionedPackage("Inst",48); versionedPackage("Inst",49); versionedPackage("Inst",50); versionedPackage("Inst",51); versionedPackage("Inst",52); versionedPackage("Inst",53); versionedPackage("Inst",54); versionedPackage("Inst",55); versionedPackage("Inst",56); versionedPackage("Inst",57); versionedPackage("Inst",58); versionedPackage("Inst",59); versionedPackage("Inst",60); versionedPackage("Inst",61); versionedPackage("Inst",62); versionedPackage("Inst",63); versionedPackage("Inst",64); versionedPackage("Inst",65); versionedPackage("Inst",66); versionedPackage("Inst",67); versionedPackage("Inst",68); versionedPackage("Inst",69); versionedPackage("Inst",70); versionedPackage("Inst",71); versionedPackage("Inst",72); versionedPackage("Inst",73); versionedPackage("Inst",74); versionedPackage("Inst",75); versionedPackage("Inst",76); versionedPackage("Inst",77); versionedPackage("Inst",78); versionedPackage("Inst",79); versionedPackage("Inst",80); versionedPackage("Inst",81); versionedPackage("Inst",82); versionedPackage("Inst",83); versionedPackage("Inst",84); versionedPackage("Inst",85); versionedPackage("Inst",86); versionedPackage("Inst",87); versionedPackage("Inst",88); versionedPackage("Inst",89); versionedPackage("Inst",90); versionedPackage("Inst",91); versionedPackage("Inst",92); versionedPackage("Inst",93); versionedPackage("Inst",94); versionedPackage("Inst",95); versionedPackage("Inst",96); versionedPackage("Inst",97); versionedPackage("Inst",98); versionedPackage("Inst",99); versionedPackage("Inst",100); versionedPackage("Inst",101); versionedPackage("Inst",102); versionedPackage("Inst",103); versionedPackage("Inst",104); versionedPackage("Inst",105); versionedPackage("Inst",106); versionedPackage("Inst",107); versionedPackage("Inst",108); versionedPackage("Inst",109); versionedPackage("Inst",110); versionedPackage("Inst",111); versionedPackage("Inst",112); versionedPackage("Inst",113); versionedPackage("Inst",114); versionedPackage("Inst",115); versionedPackage("Inst",116); versionedPackage("Inst",117); versionedPackage("Inst",118); versionedPackage("Inst",119); versionedPackage("Inst",120); versionedPackage("Inst",121); versionedPackage("Inst",122); versionedPackage("Inst",123); versionedPackage("Inst",124); versionedPackage("Inst",125); versionedPackage("Inst",126); versionedPackage("Inst",127); versionedPackage("Inst",128); versionedPackage("Inst",129); versionedPackage("Inst",130); versionedPackage("Inst",131); versionedPackage("Inst",132); versionedPackage("Inst",133); versionedPackage("Inst",134); versionedPackage("Inst",135); versionedPackage("Inst",136); versionedPackage("Inst",137); versionedPackage("Inst",138); versionedPackage("Inst",139); versionedPackage("Inst",140); versionedPackage("Inst",141); versionedPackage("Inst",142); versionedPackage("Inst",143); versionedPackage("Inst",144); versionedPackage("Inst",145); versionedPackage("Inst",146); versionedPackage("Inst",147); versionedPackage("Inst",148); versionedPackage("Inst",149); versionedPackage("Inst",150); versionedPackage("Inst",151); versionedPackage("Inst",152); versionedPackage("Inst",153); versionedPackage("Inst",154); versionedPackage("Inst",155); versionedPackage("Inst",156); versionedPackage("Inst",157); versionedPackage("Inst",158); versionedPackage("Inst",159); versionedPackage("Inst",160); versionedPackage("Inst",161); versionedPackage("Inst",162); versionedPackage("Inst",163); versionedPackage("Inst",164); versionedPackage("Inst",165); versionedPackage("Inst",166); versionedPackage("Inst",167); versionedPackage("Inst",168); versionedPackage("Inst",169); versionedPackage("Inst",170); versionedPackage("Inst",171); versionedPackage("Inst",172); versionedPackage("Inst",173); versionedPackage("Inst",174); versionedPackage("Inst",175); versionedPackage("Inst",176); versionedPackage("Inst",177); versionedPackage("Inst",178); versionedPackage("Inst",179); versionedPackage("Inst",180); versionedPackage("Inst",181); versionedPackage("Inst",182); versionedPackage("Inst",183); versionedPackage("Inst",184); versionedPackage("Inst",185); versionedPackage("Inst",186); versionedPackage("Inst",187); versionedPackage("Inst",188); versionedPackage("Inst",189); versionedPackage("Inst",190); versionedPackage("Inst",191); versionedPackage("Inst",192); versionedPackage("Inst",193); versionedPackage("Inst",194); versionedPackage("Inst",195); versionedPackage("Inst",196); versionedPackage("Inst",197); versionedPackage("Inst",198); versionedPackage("Inst",199) }
  isInstalledBefore = {  }
  isNewlyInstalled = { "Cnfl"; "Inst" }
  isNotUpToDate = { "Cnfl" }
  isRemoved = {  }
}

