file,packages,dependencies,processing_time,definition_eval,grounding,solving,score_removed,score_changed,error
rand8cc693.cudf,17651,453026,18011,,,,,,Out of resources
randfa4522.cudf,17469,449847,18011,,,,,,Out of resources
randec88d5.cudf,17817,457001,18011,,,,,,Out of resources
rand332173.cudf,17734,455238,18011,,,,,,Out of resources
rand655e63.cudf,17667,452995,18011,,,,,,Out of resources
rand878003.cudf,17566,452158,18011,,,,,,Out of resources
rand6b4d6e.cudf,17717,458167,18011,,,,,,Out of resources
rand7141b1.cudf,17575,452353,18011,,,,,,Out of resources
rand0695fb.cudf,17516,450706,18011,,,,,,Out of resources
rand81406f.cudf,17581,452862,18012,,,,,,Out of resources
rand3dec28.cudf,17730,455528,18011,,,,,,Out of resources
rand835640.cudf,17650,454254,18011,,,,,,Out of resources
rand7902a8.cudf,17547,451316,18011,,,,,,Out of resources
randaafcce.cudf,17615,452319,18011,,,,,,Out of resources
randa223c3.cudf,18044,458739,18011,,,,,,Out of resources
