file,packages,dependencies,processing_time,definition_eval,grounding,solving,score_removed,score_changed,error
29180036-5408-11df-9f57-00163e7a6f5e.cudf,2972,18215,18009,,,,,,Out of resources
103c9978-5408-11df-9bc1-00163e7a6f5e.cudf,2972,18215,18009,,,,,,Out of resources
688250e8-4bb4-11df-a561-00163e7a6f5e.cudf,15522,93102,18009,,,,,,Out of resources
218091ce-4bcc-11df-bc4e-00163e7a6f5e.cudf,15522,93102,18009,,,,,,Out of resources
e8a3eb4c-4c81-11df-8b8c-00163e7a6f5e.cudf,15522,93102,18010,,,,,,Out of resources
412959c6-e965-11de-8ebf-00163e6585dd.cudf,3157,19045,18009,,,,,,Out of resources
2f690324-4939-11df-9e6e-00163e7a6f5e.cudf,15490,92566,18009,,,,,,Out of resources
7266f636-4b23-11df-9e6e-00163e7a6f5e.cudf,15567,93273,18008,,,,,,Out of resources
cb0e73b0-0ffd-11df-9e59-00163e2c8d72.cudf,3959,23572,18009,,,,,,Out of resources
3e4f8550-0b33-11df-942d-00163e1d94dc.cudf,14623,88525,18009,,,,,,Out of resources
1dcce248-4bb4-11df-9e6e-00163e7a6f5e.cudf,15522,93102,18010,,,,,,Out of resources
56ae4afa-0b33-11df-8a2b-00163e1d94dc.cudf,14623,88525,18009,,,,,,Out of resources
9bb87ab4-4c36-11df-bc1e-00163e7a6f5e.cudf,15522,93102,18009,,,,,,Out of resources
eeee44ce-5407-11df-b11f-00163e7a6f5e.cudf,2972,18215,18008,,,,,,Out of resources
7e7e0b16-38a5-11df-b280-00163e7a6f5e.cudf,14994,89321,18008,,,,,,Out of resources
8ad21cec-4b22-11df-b280-00163e7a6f5e.cudf,15567,93273,18008,,,,,,Out of resources
e0bd67a6-56d0-11df-b11f-00163e7a6f5e.cudf,2731,16097,18008,,,,,,Out of resources
58a4a468-38a5-11df-a561-00163e7a6f5e.cudf,14994,89321,18008,,,,,,Out of resources
