-- START --
>>> Start processing at 07:51:26: rand7141b1.cudf
>>> Start processing at 07:51:26: randaafcce.cudf
>>> Start processing at 07:51:26: rand655e63.cudf
>>> Start processing at 07:51:26: rand6b4d6e.cudf
>>> Start processing at 07:51:26: rand81406f.cudf
>>> Finished processing after 18011s: rand7141b1.cudf
>>> Start processing at 12:51:37: randec88d5.cudf
>>> Finished processing after 18011s: rand6b4d6e.cudf
>>> Start processing at 12:51:38: rand7902a8.cudf
>>> Finished processing after 18011s: randaafcce.cudf
>>> Start processing at 12:51:38: rand0695fb.cudf
>>> Finished processing after 18011s: rand655e63.cudf
>>> Start processing at 12:51:38: randa223c3.cudf
>>> Finished processing after 18012s: rand81406f.cudf
>>> Start processing at 12:51:38: rand3dec28.cudf
>>> Finished processing after 18011s: randec88d5.cudf
>>> Start processing at 17:51:48: rand835640.cudf
>>> Finished processing after 18011s: rand7902a8.cudf
>>> Start processing at 17:51:48: rand8cc693.cudf
>>> Finished processing after 18011s: randa223c3.cudf
>>> Start processing at 17:51:49: rand332173.cudf
>>> Finished processing after 18011s: rand0695fb.cudf
>>> Start processing at 17:51:49: rand878003.cudf
>>> Finished processing after 18011s: rand3dec28.cudf
>>> Start processing at 17:51:49: randfa4522.cudf
