>>> Parsing
>>> Parsing took 0.150708s
>>> Adding stanzas
>>> Stanzas: 2394 packages
>>> Stanzas: 2394 packages and 14885 orDependencies were added
>>> Adding stanzas took 655.257231s
>>> Cleaning structure
>>> Solving
