>>> Parsing
>>> Parsing took 0.119951s
>>> Adding stanzas
>>> Stanzas: 2394 packages
>>> Stanzas: 2394 packages and 14885 orDependencies were added
>>> Adding stanzas took 752.814265s
>>> Cleaning structure
>>> Solving
