>>> Parsing
>>> Parsing took 0.078511s
>>> Adding stanzas
>>> Stanzas: 1199 packages
>>> Stanzas: 1199 packages and 7435 orDependencies were added
>>> Adding stanzas took 156.684051s
>>> Cleaning structure
>>> Solving
