>>> Parsing
>>> Parsing took 0.041055s
>>> Adding stanzas
>>> Stanzas (1/11): 600 packages added
>>> Stanzas (2/11): 600 versions added
>>> Stanzas (3/11): 600 versioned packages added
>>> Stanzas (4/11): 600 installations marked
>>> Stanzas (5/11): 3619 package version constraints added
>>> Stanzas (6/11): 2442 orDependencies added
>>> Stanzas (7/11): 990 dependencies added
>>> Stanzas (8/11): 990 dependencies marked
>>> Stanzas (9/11): 2348 conflicts marked
>>> Stanzas (10/11): 0 provides marked
>>> Stanzas (11/11): 600 keep marked
>>> Adding stanzas took 0.608489s
>>> Cleaning structure
>>> Solving
>>> Solving took 3.0000000000863e-06s
