Number of models: 1
Model 1
=======
structure  : OutputVoc {
  isChanged = { Cnfl; Inst }
  isInstalledAfter = { Cnfl_v1; Cnfl_v103; Cnfl_v106; Cnfl_v108; Cnfl_v112; Cnfl_v116; Cnfl_v118; Cnfl_v119; Cnfl_v120; Cnfl_v125; Cnfl_v133; Cnfl_v139; Cnfl_v143; Cnfl_v144; Cnfl_v145; Cnfl_v146; Cnfl_v150; Cnfl_v156; Cnfl_v157; Cnfl_v158; Cnfl_v159; Cnfl_v16; Cnfl_v161; Cnfl_v163; Cnfl_v166; Cnfl_v169; Cnfl_v174; Cnfl_v177; Cnfl_v179; Cnfl_v183; Cnfl_v185; Cnfl_v187; Cnfl_v191; Cnfl_v192; Cnfl_v193; Cnfl_v194; Cnfl_v195; Cnfl_v200; Cnfl_v204; Cnfl_v205; Cnfl_v206; Cnfl_v209; Cnfl_v210; Cnfl_v219; Cnfl_v22; Cnfl_v220; Cnfl_v224; Cnfl_v225; Cnfl_v227; Cnfl_v229; Cnfl_v23; Cnfl_v234; Cnfl_v236; Cnfl_v237; Cnfl_v24; Cnfl_v244; Cnfl_v253; Cnfl_v256; Cnfl_v258; Cnfl_v260; Cnfl_v263; Cnfl_v265; Cnfl_v268; Cnfl_v270; Cnfl_v272; Cnfl_v273; Cnfl_v274; Cnfl_v275; Cnfl_v277; Cnfl_v280; Cnfl_v283; Cnfl_v285; Cnfl_v286; Cnfl_v292; Cnfl_v293; Cnfl_v297; Cnfl_v298; Cnfl_v299; Cnfl_v3; Cnfl_v302; Cnfl_v309; Cnfl_v313; Cnfl_v315; Cnfl_v316; Cnfl_v319; Cnfl_v326; Cnfl_v335; Cnfl_v337; Cnfl_v338; Cnfl_v339; Cnfl_v340; Cnfl_v341; Cnfl_v35; Cnfl_v350; Cnfl_v353; Cnfl_v356; Cnfl_v357; Cnfl_v360; Cnfl_v364; Cnfl_v376; Cnfl_v389; Cnfl_v391; Cnfl_v394; Cnfl_v397; Cnfl_v400; Cnfl_v402; Cnfl_v405; Cnfl_v406; Cnfl_v407; Cnfl_v41; Cnfl_v410; Cnfl_v414; Cnfl_v416; Cnfl_v418; Cnfl_v419; Cnfl_v420; Cnfl_v430; Cnfl_v431; Cnfl_v432; Cnfl_v433; Cnfl_v435; Cnfl_v437; Cnfl_v439; Cnfl_v44; Cnfl_v446; Cnfl_v45; Cnfl_v451; Cnfl_v452; Cnfl_v456; Cnfl_v457; Cnfl_v458; Cnfl_v460; Cnfl_v461; Cnfl_v462; Cnfl_v464; Cnfl_v467; Cnfl_v468; Cnfl_v473; Cnfl_v474; Cnfl_v475; Cnfl_v476; Cnfl_v48; Cnfl_v480; Cnfl_v484; Cnfl_v490; Cnfl_v492; Cnfl_v495; Cnfl_v497; Cnfl_v498; Cnfl_v499; Cnfl_v50; Cnfl_v500; Cnfl_v53; Cnfl_v60; Cnfl_v61; Cnfl_v68; Cnfl_v7; Cnfl_v71; Cnfl_v72; Cnfl_v73; Cnfl_v75; Cnfl_v76; Cnfl_v8; Cnfl_v81; Cnfl_v84; Cnfl_v86; Cnfl_v87; Cnfl_v88; Cnfl_v9; Cnfl_v94; Inst_v1; Inst_v10; Inst_v100; Inst_v11; Inst_v12; Inst_v13; Inst_v14; Inst_v15; Inst_v16; Inst_v17; Inst_v18; Inst_v19; Inst_v2; Inst_v20; Inst_v21; Inst_v22; Inst_v23; Inst_v24; Inst_v25; Inst_v26; Inst_v27; Inst_v28; Inst_v29; Inst_v3; Inst_v30; Inst_v31; Inst_v32; Inst_v33; Inst_v34; Inst_v35; Inst_v36; Inst_v37; Inst_v38; Inst_v39; Inst_v4; Inst_v40; Inst_v41; Inst_v42; Inst_v43; Inst_v44; Inst_v45; Inst_v46; Inst_v47; Inst_v48; Inst_v49; Inst_v5; Inst_v50; Inst_v51; Inst_v52; Inst_v53; Inst_v54; Inst_v55; Inst_v56; Inst_v57; Inst_v58; Inst_v59; Inst_v6; Inst_v60; Inst_v61; Inst_v62; Inst_v63; Inst_v64; Inst_v65; Inst_v66; Inst_v67; Inst_v68; Inst_v69; Inst_v7; Inst_v70; Inst_v71; Inst_v72; Inst_v73; Inst_v74; Inst_v75; Inst_v76; Inst_v77; Inst_v78; Inst_v79; Inst_v8; Inst_v80; Inst_v81; Inst_v82; Inst_v83; Inst_v84; Inst_v85; Inst_v86; Inst_v87; Inst_v88; Inst_v89; Inst_v9; Inst_v90; Inst_v91; Inst_v92; Inst_v93; Inst_v94; Inst_v95; Inst_v96; Inst_v97; Inst_v98; Inst_v99 }
  isInstalledBefore = {  }
  isNewlyInstalled = { Cnfl; Inst }
  isNotUpToDate = {  }
  isRemoved = {  }
}

