Number of models: 1
Model 1
=======
structure  : OutputVoc {
  isChanged = { Cnfl; Inst }
  isInstalledAfter = { Cnfl_v1; Cnfl_v101; Cnfl_v107; Cnfl_v108; Cnfl_v109; Cnfl_v110; Cnfl_v111; Cnfl_v115; Cnfl_v117; Cnfl_v121; Cnfl_v122; Cnfl_v126; Cnfl_v127; Cnfl_v128; Cnfl_v131; Cnfl_v133; Cnfl_v138; Cnfl_v139; Cnfl_v141; Cnfl_v143; Cnfl_v149; Cnfl_v15; Cnfl_v154; Cnfl_v159; Cnfl_v16; Cnfl_v162; Cnfl_v163; Cnfl_v167; Cnfl_v17; Cnfl_v180; Cnfl_v181; Cnfl_v188; Cnfl_v19; Cnfl_v196; Cnfl_v197; Cnfl_v199; Cnfl_v2; Cnfl_v20; Cnfl_v200; Cnfl_v202; Cnfl_v204; Cnfl_v21; Cnfl_v210; Cnfl_v211; Cnfl_v213; Cnfl_v214; Cnfl_v219; Cnfl_v221; Cnfl_v223; Cnfl_v224; Cnfl_v225; Cnfl_v226; Cnfl_v231; Cnfl_v232; Cnfl_v233; Cnfl_v234; Cnfl_v237; Cnfl_v241; Cnfl_v242; Cnfl_v244; Cnfl_v245; Cnfl_v248; Cnfl_v25; Cnfl_v253; Cnfl_v257; Cnfl_v258; Cnfl_v26; Cnfl_v263; Cnfl_v265; Cnfl_v266; Cnfl_v267; Cnfl_v270; Cnfl_v271; Cnfl_v278; Cnfl_v28; Cnfl_v29; Cnfl_v294; Cnfl_v296; Cnfl_v299; Cnfl_v302; Cnfl_v307; Cnfl_v308; Cnfl_v311; Cnfl_v313; Cnfl_v316; Cnfl_v317; Cnfl_v318; Cnfl_v319; Cnfl_v32; Cnfl_v323; Cnfl_v324; Cnfl_v326; Cnfl_v330; Cnfl_v331; Cnfl_v332; Cnfl_v340; Cnfl_v353; Cnfl_v354; Cnfl_v355; Cnfl_v357; Cnfl_v36; Cnfl_v361; Cnfl_v364; Cnfl_v37; Cnfl_v371; Cnfl_v372; Cnfl_v373; Cnfl_v375; Cnfl_v378; Cnfl_v379; Cnfl_v383; Cnfl_v384; Cnfl_v385; Cnfl_v388; Cnfl_v389; Cnfl_v392; Cnfl_v395; Cnfl_v399; Cnfl_v405; Cnfl_v406; Cnfl_v407; Cnfl_v410; Cnfl_v411; Cnfl_v413; Cnfl_v421; Cnfl_v425; Cnfl_v426; Cnfl_v435; Cnfl_v436; Cnfl_v437; Cnfl_v439; Cnfl_v440; Cnfl_v443; Cnfl_v444; Cnfl_v449; Cnfl_v454; Cnfl_v459; Cnfl_v461; Cnfl_v462; Cnfl_v466; Cnfl_v474; Cnfl_v475; Cnfl_v477; Cnfl_v478; Cnfl_v481; Cnfl_v483; Cnfl_v484; Cnfl_v485; Cnfl_v486; Cnfl_v487; Cnfl_v488; Cnfl_v489; Cnfl_v49; Cnfl_v490; Cnfl_v492; Cnfl_v53; Cnfl_v62; Cnfl_v64; Cnfl_v65; Cnfl_v66; Cnfl_v71; Cnfl_v72; Cnfl_v76; Cnfl_v78; Cnfl_v79; Cnfl_v8; Cnfl_v86; Cnfl_v87; Cnfl_v88; Cnfl_v92; Cnfl_v96; Inst_v1; Inst_v10; Inst_v100; Inst_v11; Inst_v12; Inst_v13; Inst_v14; Inst_v15; Inst_v16; Inst_v17; Inst_v18; Inst_v19; Inst_v2; Inst_v20; Inst_v21; Inst_v22; Inst_v23; Inst_v24; Inst_v25; Inst_v26; Inst_v27; Inst_v28; Inst_v29; Inst_v3; Inst_v30; Inst_v31; Inst_v32; Inst_v33; Inst_v34; Inst_v35; Inst_v36; Inst_v37; Inst_v38; Inst_v39; Inst_v4; Inst_v40; Inst_v41; Inst_v42; Inst_v43; Inst_v44; Inst_v45; Inst_v46; Inst_v47; Inst_v48; Inst_v49; Inst_v5; Inst_v50; Inst_v51; Inst_v52; Inst_v53; Inst_v54; Inst_v55; Inst_v56; Inst_v57; Inst_v58; Inst_v59; Inst_v6; Inst_v60; Inst_v61; Inst_v62; Inst_v63; Inst_v64; Inst_v65; Inst_v66; Inst_v67; Inst_v68; Inst_v69; Inst_v7; Inst_v70; Inst_v71; Inst_v72; Inst_v73; Inst_v74; Inst_v75; Inst_v76; Inst_v77; Inst_v78; Inst_v79; Inst_v8; Inst_v80; Inst_v81; Inst_v82; Inst_v83; Inst_v84; Inst_v85; Inst_v86; Inst_v87; Inst_v88; Inst_v89; Inst_v9; Inst_v90; Inst_v91; Inst_v92; Inst_v93; Inst_v94; Inst_v95; Inst_v96; Inst_v97; Inst_v98; Inst_v99 }
  isInstalledBefore = {  }
  isNewlyInstalled = { Cnfl; Inst }
  isNotUpToDate = { Cnfl }
  isRemoved = {  }
}

