file,packages,dependencies,processing_time,grounding,solving,score_removed,score_changed,error
rand0aa5c1.cudf,4737,61990,11,,,,,
randf406d5.cudf,4717,62866,10,,,,,
rande4fcd8.cudf,5098,67458,11,,,,,
rand7b4167.cudf,4378,58462,10,,,,,
randa651ed.cudf,4565,60178,11,,,,,
randa45895.cudf,4512,59522,11,,,,,
randd8bf6a.cudf,4621,60213,10,,,,,
randf17677.cudf,4696,60861,11,,,,,
rand908403.cudf,4627,61943,10,,,,,
rand2fe899.cudf,4742,61781,10,,,,,
rand06f749.cudf,4482,59380,10,,,,,
rand847939.cudf,4406,58915,10,,,,,
rand49d73b.cudf,4771,62147,10,,,,,
randa870aa.cudf,4516,60350,10,,,,,
rand394916.cudf,4581,61292,10,,,,,
rand4d6b1c.cudf,4412,58880,10,,,,,
rand2d2fd0.cudf,4992,64904,11,,,,,
randc10393.cudf,4489,60513,10,,,,,
rand95e48b.cudf,4546,61081,10,,,,,
rand14ba69.cudf,4474,59696,10,,,,,
randf61f65.cudf,5255,68012,11,,,,,
rand50a937.cudf,5048,66167,11,,,,,
