file,packages,dependencies,processing_time,grounding,solving,score_removed,score_changed,error
randea6106.cudf,2629,20697,6,,,,,
rand2fb7ab.cudf,2619,20706,6,,,,,
rand1bff33.cudf,2620,20640,6,,,,,
randaaa8ea.cudf,2614,20582,6,,,,,
randadea40.cudf,2633,20855,6,,,,,
randf7a7e4.cudf,2623,20609,6,,,,,
rand5c1800.cudf,2625,20619,6,,,,,
rand5619c8.cudf,2696,21074,6,,,,,
rand8d117b.cudf,2660,21252,6,,,,,
randc192b7.cudf,2654,21106,6,,,,,
randbe9acf.cudf,2637,20673,6,,,,,
rand13b58e.cudf,2706,21606,6,,,,,
randeb343c.cudf,2639,20744,6,,,,,
randba6b5b.cudf,2638,20762,6,,,,,
rand7fec8c.cudf,2628,20708,6,,,,,
randa9ba44.cudf,2619,20590,6,,,,,
rand08759d.cudf,2628,20637,6,,,,,
rand359ca0.cudf,2635,20663,6,,,,,
rand951a14.cudf,2636,20737,7,,,,,
rand6d933e.cudf,2635,20762,6,,,,,
rand61b840.cudf,2748,21534,6,,,,,
